<?xml version="1.0" standalone="no"?>
<!DOCTYPE svg PUBLIC "-//W3C//DTD SVG 1.1//EN" "http://www.w3.org/Graphics/SVG/1.1/DTD/svg11.dtd" >
<svg xmlns="http://www.w3.org/2000/svg">
<metadata>
This is a custom SVG webfont generated by Font Squirrel.
Copyright   : Copyright c 2010 by tyPoland Lukasz Dziedzic with Reserved Font Name Lato Licensed under the SIL Open Font License Version 11 
Designer    : Lukasz Dziedzic
Foundry     : tyPoland Lukasz Dziedzic
Foundry URL : httpwwwtypolandcom
</metadata>
<defs>
<font id="webfontx1AeDq9C" horiz-adv-x="1187" >
<font-face units-per-em="2048" ascent="1649" descent="-399" />
<missing-glyph horiz-adv-x="395" />
<glyph unicode=" "  horiz-adv-x="395" />
<glyph unicode="&#x09;" horiz-adv-x="395" />
<glyph unicode="&#xa0;" horiz-adv-x="395" />
<glyph unicode="!" horiz-adv-x="770" d="M205 160q0 33 14 69q12 31 37 55.5t57 37.5q39 14 72 14q31 0 70 -14q33 -12 57 -37q29 -29 39 -56q14 -37 14 -69.5t-14 -67.5q-10 -27 -39 -55q-25 -25 -57 -37q-39 -14 -70 -14q-33 0 -72 14q-33 12 -57.5 36.5t-36.5 55.5q-14 35 -14 68zM240 905v586h297v-586 q0 -94 -13 -186q-16 -129 -28 -189h-215q-18 92 -31 189q-10 75 -10 186z" />
<glyph unicode="&#x22;" horiz-adv-x="911" d="M113 1200v291h276v-291l-29 -164q-8 -55 -32 -84q-23 -29 -78 -28q-49 0 -72 28q-29 37 -37 84zM522 1200v291h277v-291l-29 -164q-8 -55 -33 -84q-23 -29 -78 -28q-49 0 -71 28q-29 37 -37 84z" />
<glyph unicode="#" d="M20 487v21q0 4 5 20l16 99h180l45 241h-205l25 129q10 47 41 70q33 23 98 23h70l53 299q8 49 45 75q35 27 88 27h146l-72 -401h170l72 401h141q46 0 74 -25q29 -25 28 -61v-8l-1 -3q-1 -3 -1 -5l-53 -299h199l-25 -129q-8 -47 -41 -70t-98 -23h-66l-41 -241h111 q40 0 61 -19q20 -18 21 -63v-21q0 -4 -4 -20l-17 -98h-202l-72 -406h-147q-20 0 -37 8q-12 6 -29 23q-14 14 -20.5 32.5t-6.5 38.5v13q0 2 1 6t1 6l50 279h-168l-52 -295q-6 -29 -18 -52q-12 -20 -33 -34q-18 -12 -42.5 -18.5t-47.5 -6.5h-141l72 406h-91q-40 0 -61 18 t-21 63zM483 627h168l45 241h-172z" />
<glyph unicode="$" d="M35 180l98 144q10 16 32.5 28.5t45 12.5t51.5 -15q25 -12 55 -31q41 -25 66 -36q47 -23 82 -33l39 389q-98 29 -148 47q-68 25 -131 76q-57 45 -94 118.5t-37 182.5q0 84 33 158q33 78 96 139q59 59 154 100q90 39 213 45l10 113q2 27 27 53q20 23 57 23h117l-21 -203 q117 -23 191 -66q80 -46 135 -98l-78 -113q-20 -27 -35 -36q-18 -12 -43 -13q-15 0 -37 6q-18 6 -45 19l-53 22q-33 14 -59 23l-35 -363q66 -20 98 -32q55 -20 94 -39q31 -14 84 -51q41 -29 70 -66t45 -90t16 -115q0 -100 -32 -184q-35 -90 -97 -152q-63 -63 -155 -106 q-84 -39 -211 -49l-12 -129q-2 -25 -27 -52q-20 -25 -57 -24h-117l20 213q-119 18 -225 67t-180 117zM393 1094q0 -59 39 -99q35 -35 100 -61l31 307q-43 -6 -80 -20q-31 -12 -51 -33q-23 -23 -31 -43q-8 -22 -8 -51zM659 246q168 31 168 184q0 61 -36 94q-35 33 -99 58z " />
<glyph unicode="%" horiz-adv-x="1675" d="M51 1130q0 88 27 154q31 76 74 119q49 47 112 76q68 29 144 28q74 0 143 -28q66 -27 115 -76q43 -43 73 -119q27 -66 27 -154q0 -86 -29 -149q-31 -68 -80 -117q-43 -43 -114 -73q-68 -29 -135 -29q-76 0 -143.5 28.5t-112.5 73.5q-43 43 -74 117q-27 65 -27 149zM111 0 l1124 1446q6 8 39 31q20 14 61 14h232l-1125 -1446q-18 -23 -39 -33q-25 -12 -55 -12h-237zM297 1130q0 -51 8 -81q10 -39 23 -54q14 -18 34 -26q18 -8 45 -8t46 8q23 10 36 26q14 18 25 54q8 31 8 81q0 55 -8 87q-9 34 -25 55q-12 18 -36 28q-18 8 -45 8.5t-46 -8.5 q-20 -8 -34 -28q-12 -16 -23 -55q-8 -32 -8 -87zM909 350q0 88 27 154q31 76 74 119q47 49 112 75q61 27 144 27q78 0 143.5 -26.5t114.5 -75.5q43 -43 73 -119q27 -66 27 -154q0 -82 -31 -149q-33 -72 -77 -117q-47 -47 -115 -76q-61 -27 -135 -26q-82 0 -144 26 q-66 29 -112 76q-43 43 -74 117q-27 65 -27 149zM1155 350q0 -51 8 -82q10 -37 23 -51q18 -20 35 -29q18 -8 44.5 -8t45.5 8q20 8 37 29q16 18 24 51q8 31 8 82q0 55 -8 86q-9 34 -24 56q-12 18 -37 28q-18 8 -45 8t-45 -8q-20 -8 -35 -28q-12 -16 -23 -56q-8 -31 -8 -86z " />
<glyph unicode="&#x26;" horiz-adv-x="1480" d="M47 422q0 68 21 127q20 57 59 113q33 47 90 94q51 41 115 73q-47 70 -70 146q-20 68 -20 139q0 86 28 152q31 70 86 125q53 53 138 86q80 31 186 30q104 0 176 -28q80 -33 127 -76q51 -47 82 -111q31 -61 37 -129l-205 -41h-8h-8q-43 0 -64 45q-25 52 -55 80 q-29 27 -82 27q-33 0 -62 -12q-25 -10 -45 -35q-18 -23 -28 -51q-8 -25 -8 -58q0 -37 4 -53q8 -33 16 -49q16 -33 29 -51q16 -25 49 -58l369 -389q33 70 45 129q16 76 22 137q4 33 19 45q20 16 45 17h200q0 -145 -41 -278.5t-112 -237.5l313 -330h-313q-31 0 -43.5 2t-33 10 t-30.5 17q-20 16 -31 28l-65 68q-102 -70 -211 -105q-117 -37 -246 -36q-88 0 -174 30q-78 29 -151 88q-68 55 -109 137.5t-41 182.5zM371 446q0 -53 14 -90q15 -40 43 -67q31 -31 65.5 -45.5t86.5 -14.5q76 0 127 17q61 18 110 51l-342 362q-61 -51 -82 -98 q-22 -52 -22 -115z" />
<glyph unicode="'" horiz-adv-x="501" d="M113 1200v291h276v-291l-29 -164q-8 -55 -32 -84q-23 -29 -78 -28q-49 0 -72 28q-29 37 -37 84z" />
<glyph unicode="(" horiz-adv-x="614" d="M82 641q0 123 16 258q16 127 49 250q31 115 86 240q43 100 129 235l142 -82q20 -14 31 -26q14 -18 14 -39q0 -8 -4 -25q-4 -18 -13 -31q-43 -86 -75 -178q-33 -94 -56 -194q-18 -88 -32 -203q-12 -104 -13 -205q0 -101 13 -203q14 -123 34 -202q33 -131 56 -195 q35 -98 76 -180q14 -29 14 -53.5t-12 -40.5q-4 -6 -33 -25l-142 -82q-84 129 -129 234q-55 125 -86 239q-33 123 -49 250q-16 135 -16 258z" />
<glyph unicode=")" horiz-adv-x="614" d="M66 -193q0 25 14 54q41 82 76 180q23 63 55 195q20 80 35 202q12 101 12 203q0 100 -12 205q-14 115 -33 203q-23 100 -55 194q-33 92 -76 178q-8 12 -12 31q-4 16 -4 25q0 20 14 39q10 12 31 26l141 82q147 -229 215 -477q66 -238 65 -506q0 -270 -65 -508 q-66 -240 -215 -473l-141 82q-29 18 -33 25q-12 15 -12 40z" />
<glyph unicode="*" horiz-adv-x="819" d="M57 1077l150 88q6 4 12 7.5t14.5 6.5t12.5 5q18 8 41 12q-16 2 -41 14q-2 2 -16.5 8.5t-22.5 10.5l-150 90l74 123l150 -90l34 -23q20 -14 31 -26q-12 33 -12 77v181h149v-177q0 -29 -2 -43t-10 -38q4 6 31 26l18 12.5t17 10.5l149 88l74 -123l-150 -88 q-8 -4 -22.5 -10.5t-18.5 -8.5q-18 -10 -39 -12q23 -4 41 -12q33 -16 39 -21l150 -88l-74 -123l-149 90q-4 4 -17.5 11.5t-19.5 11.5q-10 8 -29 27q12 -37 12 -80v-178h-149v176q0 27 2 41q4 25 8 39q-8 -10 -29 -27q-6 -4 -17 -10t-17 -11l-150 -88z" />
<glyph unicode="+" d="M86 573v230h377v405h258v-405h379v-230h-379v-405h-258v405h-377z" />
<glyph unicode="," horiz-adv-x="483" d="M70 180q0 34 12 62q14 31 35 49q23 20 55 33q31 12 70 12q43 0 80 -17q34 -15 55 -43q25 -33 35 -61q10 -31 10 -76q0 -47 -16 -108q-12 -47 -50 -117q-33 -61 -80 -115q-51 -57 -110 -102l-55 49q-4 4 -17 23q-6 10 -6 22q0 10 6 23q4 8 19 22l28 29q2 2 14.5 16.5 t18.5 22.5q25 33 31 47q16 31 20 53q-39 4 -65 19q-31 16 -47 38q-20 27 -31 54q-12 30 -12 65z" />
<glyph unicode="-" horiz-adv-x="757" d="M102 496v254h553v-254h-553z" />
<glyph unicode="." horiz-adv-x="483" d="M61 160q0 33 15 69q12 31 36.5 55.5t57.5 37.5q39 14 72 14q31 0 69 -14q33 -12 58 -37q29 -29 39 -56q14 -37 14 -69.5t-14 -67.5q-10 -27 -39 -55q-25 -25 -58 -37q-39 -14 -69 -14q-33 0 -72 14q-33 12 -57.5 36.5t-36.5 55.5q-15 35 -15 68z" />
<glyph unicode="/" horiz-adv-x="819" d="M-25 -102l582 1527q23 55 61 80q41 27 99 27h135l-576 -1520q-14 -33 -28 -49q-16 -20 -41 -37q-18 -14 -47 -20q-33 -8 -49 -8h-136z" />
<glyph unicode="0" d="M41 745q0 203 41 340q43 145 114.5 237.5t176.5 139.5q98 45 219 45q123 0 221 -45q104 -47 176 -139q74 -96 117 -238q41 -137 41 -340q0 -201 -41 -337q-43 -141 -117 -238q-74 -94 -176 -141q-98 -45 -221 -45q-121 0 -219 45q-102 47 -176 141q-72 92 -115 238 q-41 136 -41 337zM369 745.5q0 -155.5 18 -253.5q16 -92 51 -154q31 -55 72 -77.5t82 -22.5q43 0 84 22.5t72 77.5q35 61 51 154q20 109 20 254t-20 253q-18 96 -51 156q-31 55 -72 78q-39 20 -84 20q-43 0 -82 -20q-41 -23 -72 -78q-33 -59 -51 -156q-18 -98 -18 -253.5z " />
<glyph unicode="1" d="M135 1102l465 391h262v-1264h246v-229h-850v229h287v754q0 33 4 115l-170 -140q-18 -14 -33 -20q-10 -4 -31 -4q-31 0 -49 10t-30 27z" />
<glyph unicode="2" d="M68 0v102q0 29 12 64q12 34 43 61l430 432q51 51 96 107q40 49 68 98q29 53 41 99q12 49 12 102q0 88 -43 137q-41 47 -129 47q-31 0 -66 -10q-29 -8 -53 -27q-23 -18 -41 -41q-16 -20 -26 -53q-14 -41 -41 -65q-23 -20 -68 -21h-22q-8 0 -25 4l-168 29q14 111 64 197 q45 80 114 137q63 51 160 82q86 27 190 26q109 0 199 -30q88 -31 152 -91q63 -61 96 -137q33 -78 33 -174q0 -86 -23 -151q-27 -76 -63 -133q-43 -66 -92 -121l-113 -121l-293 -299q70 20 113 26q61 10 102 11h279q47 0 79 -29q31 -28 31 -74v-184h-1048z" />
<glyph unicode="3" d="M76 383l141 57q12 6 37 10.5t35 4.5q35 0 59 -13q27 -14 39 -36q47 -90 98 -125q55 -39 121 -39q52 0 92 18q41 18 66 47q29 33 39 64q14 43 14 71q0 51 -6 88q-6 39 -37 66t-94 43q-57 14 -172 14v219q96 0 151 15q59 16 89 39q33 25 40 61q10 41 11 78q0 88 -43 137 q-41 47 -129 47q-31 0 -66 -10q-29 -8 -53 -27q-23 -18 -41 -41q-16 -20 -27 -53q-14 -41 -41 -65q-23 -20 -67 -21h-23q-8 0 -24 4l-168 29q14 111 63 197q45 80 115 137q63 51 160 82q86 27 190 26q111 0 197 -30.5t145.5 -84t89.5 -122.5q31 -71 31 -148q0 -74 -14 -125 q-14 -53 -43 -94t-70 -67.5t-94 -44.5q248 -86 248 -336q0 -120 -43 -209q-43 -88 -115 -145.5t-168 -88.5q-88 -29 -199 -28q-113 0 -188 22q-88 27 -148 72q-68 51 -114 125q-45 71 -84 180z" />
<glyph unicode="4" d="M6 565l690 926h303v-911h154v-179q0 -20 -16 -41q-14 -16 -45 -16h-93v-344h-276v344h-600q-31 0 -53 16q-25 18 -31 48zM340 580h383v389q0 49 2 78q4 53 8 83z" />
<glyph unicode="5" d="M47 174l98 131q12 18 35 31q20 12 45 12q29 0 58 -18l59 -37q33 -18 76 -35q45 -16 106 -16q66 0 109 20q47 23 74 57q31 41 41 84q12 49 12 105q0 111 -61.5 166t-174.5 55q-101 0 -196 -37l-197 53l127 746h764v-131q0 -27 -10 -57q-8 -27 -33 -48q-23 -18 -57 -30 q-37 -12 -86 -13h-357l-41 -245q61 8 80 10q53 4 76 4q125 0 209 -35q90 -37 151.5 -98.5t92.5 -145.5q31 -83 30 -178q0 -121 -43 -219q-45 -104 -116 -170q-80 -74 -182.5 -112.5t-229.5 -38.5q-68 0 -139 16q-55 12 -123 41q-57 25 -109 59q-45 31 -88 74z" />
<glyph unicode="6" d="M68 518q0 113 43 223.5t127 225.5l335 452q20 29 68 51q43 20 102 21h283l-442 -528q-6 -6 -10.5 -11.5t-10.5 -11.5q-16 -20 -18 -22q49 16 76 20q53 8 84 8q78 0 159.5 -28.5t141.5 -81.5q66 -59 100 -140q39 -90 39 -198.5t-39 -198.5q-41 -94 -111 -164 q-71 -71 -172 -110q-104 -41 -221 -41q-129 0 -225 39q-102 41 -168 110q-68 70 -105 170q-36 98 -36 215zM373 475q0 -55 12 -98q14 -47 41 -78q25 -29 70 -47q43 -18 100 -19q45 0 92 21q43 18 74 49q25 25 47 76q18 43 18 96q0 61 -16 102t-49 74q-35 35 -74 49 q-45 16 -96 17q-47 0 -88 -18.5t-70 -47.5q-27 -27 -45 -78q-16 -45 -16 -98z" />
<glyph unicode="7" d="M84 1282v209h1049v-131q0 -57 -13 -92q-18 -53 -22 -60l-523 -1104q-23 -45 -59 -73q-41 -31 -106 -31h-232l533 1069q20 41 47 78q33 45 53 65h-655q-14 0 -26.5 6.5t-23 16.5t-16.5 22.5t-6 24.5z" />
<glyph unicode="8" d="M61 426q0 49 15 115q12 55 43 98q37 51 78 80q55 37 114 59q-104 47 -151 127q-49 83 -49 197q0 88 36 162q39 78 99 129q61 51 153 84q88 31 194.5 30.5t194.5 -30.5q92 -33 154 -84q59 -51 98 -129q37 -74 37 -162q0 -114 -49 -197q-47 -80 -151 -127q55 -20 112 -59 q41 -29 78 -80q29 -41 45 -98q14 -51 14 -115q0 -92 -39 -180q-37 -82 -108 -142q-70 -57 -168 -88q-104 -33 -217 -32.5t-217 32.5q-98 31 -168 88q-72 59 -109 142q-39 88 -39 180zM389 434q0 -47 12 -84q12 -39 37 -65q27 -29 64 -45q39 -16 92 -17q49 0 92 17 q35 14 64 45q25 27 36 65q12 37 13 84q0 41 -11 86q-10 41 -34 70q-27 29 -62 43q-43 16 -98 16t-98 -16q-35 -14 -62 -43q-25 -29 -35 -70q-10 -45 -10 -86zM420 1096q0 -39 6 -76q4 -31 29 -66q16 -25 53 -45q34 -18 86 -18t86 18q37 20 53 45q25 35 29 66q6 37 6 76 q0 31 -10 67q-10 35 -29 58q-23 27 -55 41q-37 16 -80 16q-45 0 -82 -16q-29 -12 -53 -41q-18 -23 -29 -58q-10 -36 -10 -67z" />
<glyph unicode="9" d="M115 1012q0 102 37 192q37 88 106 158q63 63 166 106q92 39 215 39t217 -36.5t159.5 -102t102.5 -158.5q35 -88 35 -202q0 -74 -12 -140q-14 -70 -33 -123q-23 -61 -51 -112q-31 -55 -66 -105l-321 -458q-18 -27 -64 -50q-41 -20 -100 -20h-293l473 565q14 16 27 33 l24 33q-49 -27 -98 -37q-55 -12 -115 -12q-66 0 -145 26q-68 23 -131 80q-59 53 -96 133t-37 191zM432 1036q0 -223 207 -223q100 0 155.5 61.5t55.5 161.5q0 51 -16 97q-14 39 -43 67q-27 27 -70 43q-37 14 -86 14q-53 0 -86 -16q-43 -20 -64 -47q-29 -35 -39 -70 q-14 -47 -14 -88z" />
<glyph unicode=":" horiz-adv-x="565" d="M102 160q0 33 15 69q12 31 36.5 55.5t57.5 37.5q39 14 72 14q31 0 69 -14q33 -12 58 -37q29 -29 39 -56q14 -37 14 -69.5t-14 -67.5q-10 -27 -39 -55q-25 -25 -58 -37q-39 -14 -69 -14q-33 0 -72 14q-33 12 -57.5 36.5t-36.5 55.5q-15 35 -15 68zM102 860q0 33 15 70 q10 27 37 53q29 29 57 39q39 14 72 14q31 0 69 -14q29 -10 57.5 -39t39.5 -53q14 -37 14 -70t-14 -69q-10 -27 -39 -56q-25 -25 -58 -37q-39 -14 -69 -14q-33 0 -72 14q-33 12 -57.5 37t-36.5 56q-15 36 -15 69z" />
<glyph unicode=";" horiz-adv-x="565" d="M102 860q0 33 15 70q10 27 37 53q29 29 57 39q39 14 72 14q31 0 69 -14q29 -10 57.5 -39t39.5 -53q14 -37 14 -70t-14 -69q-10 -27 -39 -56q-25 -25 -58 -37q-39 -14 -69 -14q-33 0 -72 14q-33 12 -57.5 37t-36.5 56q-15 36 -15 69zM111 180q0 34 12 62q14 31 35 49 q23 20 55 33q31 12 70 12q43 0 79 -17q34 -15 56 -43q25 -33 35 -61q10 -31 10 -76q0 -47 -17 -108q-12 -47 -49 -117q-33 -61 -80 -115q-51 -57 -110 -102l-55 49q-4 4 -17 23q-6 10 -6 22q0 10 6 23q4 8 19 22l28 29q2 2 14.5 16.5t18.5 22.5q25 33 31 47q16 31 20 53 q-39 4 -65 19q-31 16 -47 38q-20 27 -31 54q-12 30 -12 65z" />
<glyph unicode="&#x3c;" d="M133 629v125l830 434v-221q0 -25 -13 -43q-14 -20 -39 -35l-290 -156q-31 -16 -56 -24q-41 -12 -63 -19q8 -2 29.5 -7t33.5 -9q33 -10 56 -23l290 -159q27 -14 39.5 -33t12.5 -43v-219z" />
<glyph unicode="=" d="M127 385v229h932v-229h-932zM127 762v227h932v-227h-932z" />
<glyph unicode="&#x3e;" d="M225 197v219q0 25 12.5 43t38.5 33l291 159q18 12 56 23q12 4 33.5 9t29.5 7q-23 6 -63 19q-31 9 -56 24l-291 156q-25 14 -38 35q-12 18 -13 43v221l830 -434v-125z" />
<glyph unicode="?" horiz-adv-x="903" d="M39 1356q35 29 82 59q41 27 96 49q47 18 111 33q49 10 127 10q98 0 174 -24.5t131 -73.5q53 -47 84 -115q29 -63 28 -147q0 -82 -20 -135q-22 -55 -55.5 -98.5t-73.5 -73.5l-74 -58q-41 -31 -61 -51q-27 -27 -33 -57l-29 -144h-217l-22 166q0 2 -1 6.5t-1 6.5v12 q0 43 22 78q25 37 53 61q59 47 70 55q41 27 72 56q34 31 55 67q20 35 21 88q0 61 -41 99q-40 37 -111 37q-53 0 -90 -13q-43 -14 -64 -24q-33 -16 -45 -25q-18 -12 -39 -12q-43 0 -65 39zM227 160q0 33 15 69q12 31 36.5 55.5t57.5 37.5q39 14 71.5 14t71.5 -14 q33 -12 57.5 -37t36.5 -56q14 -37 14.5 -69.5t-14.5 -67.5q-12 -31 -36.5 -55.5t-57.5 -36.5q-39 -14 -71.5 -14t-71.5 14q-33 12 -57.5 36.5t-36.5 55.5q-15 35 -15 68z" />
<glyph unicode="@" horiz-adv-x="1685" d="M51 610q0 100 29 209q27 98 82 197q47 82 129 168q72 74 166 131q92 55 198 86q115 33 228 33q86 0 194 -25q86 -18 178 -66q84 -41 156 -104q71 -61 123 -141q51 -80 80 -176q29 -98 28 -205q0 -109 -32.5 -205t-93.5 -170q-57 -70 -141.5 -113t-180.5 -43q-33 0 -64 7 q-27 6 -57 22q-29 16 -49 39q-27 31 -37 57q-61 -68 -127 -94q-70 -29 -143 -29q-72 0 -117 23q-53 27 -84 63.5t-51 98.5q-16 49 -16 123q0 61 14 118q14 61 45 115q35 63 76 107q47 51 106 86q59 37 139 57q76 20 175 20q57 0 81 -2q31 -2 70 -10q25 -4 59 -16 q37 -12 58 -21l-101 -389q-16 -66 -16 -96q0 -53 24.5 -71.5t61.5 -18.5t70 26q31 25 55 72q25 45 37 109q14 72 14 135q0 127 -37 225q-35 96 -108 162q-74 68 -170 100.5t-219 32.5q-133 0 -244 -49q-106 -47 -188 -135q-84 -90 -125 -199q-45 -119 -45 -244 q0 -166 49 -288q49 -121 137 -207q82 -80 209 -125q115 -41 260 -41q90 0 149 8q55 8 123 23q45 10 99 32q68 29 73 33q20 12 41 12q37 0 52 -37l43 -110q-55 -35 -113 -62q-74 -33 -135 -51q-70 -20 -154 -33q-83 -12 -178 -12q-197 0 -354 60q-164 61 -281 171.5 t-184 270.5q-66 155 -66 356zM692 504q0 -61 23 -90q25 -31 65 -31q23 0 45.5 6t40.5 25q23 23 35 45q18 33 27 69l71 279q-33 4 -49 4q-52 0 -98 -25q-45 -25 -82 -67q-35 -41 -57 -98q-21 -54 -21 -117z" />
<glyph unicode="A" horiz-adv-x="1509" d="M2 0l578 1491h354l577 -1491h-268q-45 0 -73.5 20.5t-41.5 53.5l-88 262h-567l-88 -262q-8 -25 -41 -51q-29 -23 -72 -23h-270zM553 569h408l-138 410q-12 39 -30 92q-6 18 -35 113q-14 -55 -35 -115q-31 -84 -33 -92z" />
<glyph unicode="B" horiz-adv-x="1343" d="M123 0v1491h549q152 0 262 -29q113 -29 178 -80q70 -53 100.5 -126.5t30.5 -165.5q0 -55 -14 -99q-16 -49 -45 -86q-37 -47 -78 -76q-45 -31 -117 -57q150 -37 219 -117q70 -78 70 -204q0 -95 -37 -179q-35 -80 -108 -143q-70 -59 -175 -94q-109 -35 -239 -35h-596z M469 262h244q74 0 112 17q45 18 67.5 44.5t33.5 61.5q10 37 10 72q0 45 -10 73q-12 34 -37 56q-25 23 -70 35q-43 12 -108 12h-242v-371zM469 864h180q63 0 105 8q51 10 77 29q31 23 50 57q16 33 16 91q0 51 -12 88q-10 31 -41 55.5t-72 32.5q-39 8 -100 8h-203v-369z" />
<glyph unicode="C" horiz-adv-x="1345" d="M37 745q0 168 57 308q59 145 160 241q109 104 246 158q143 55 317 55q88 0 157.5 -14t139.5 -41q61 -25 119 -61q49 -33 96 -80l-117 -158q-12 -14 -26 -27q-15 -12 -43 -12q-20 0 -35 8q-2 2 -14.5 9.5t-20.5 11.5l-41 26q-25 14 -51 25q-23 10 -72 20q-35 8 -94 9 q-98 0 -172 -33q-78 -35 -133 -96q-59 -66 -88 -150q-31 -88 -31 -199q0 -114 31 -202t86 -150q59 -66 125 -94q71 -31 153 -31q59 0 86 4q47 6 72 17q39 14 64 28q35 20 61 45q16 12 27 17q15 6 30 6q16 0 25 -4q12 -6 23 -16l137 -144q-88 -117 -226 -178 q-131 -59 -321 -59q-172 0 -305 57q-135 58 -228 160q-100 109 -145 241q-49 141 -49 303z" />
<glyph unicode="D" horiz-adv-x="1519" d="M123 0v1491h579q176 0 318 -55q139 -55 244 -156q102 -98 157 -236q55 -135 56 -299q0 -162 -56 -296q-57 -141 -157 -238q-104 -100 -244 -156q-141 -55 -318 -55h-579zM471 266h231q104 0 178 33t132 96q53 59 82 150q29 92 28.5 200.5t-29 200.5t-81.5 152 q-55 61 -131 94q-74 33 -179 33h-231v-959z" />
<glyph unicode="E" horiz-adv-x="1157" d="M123 0v1491h960v-266h-612v-348h469v-254h-469v-357h612v-266h-960z" />
<glyph unicode="F" horiz-adv-x="1140" d="M123 0v1491h960v-266h-612v-377h510v-266h-510v-582h-348z" />
<glyph unicode="G" horiz-adv-x="1458" d="M37 745q0 166 55 308q55 143 158 241q106 104 250 158q147 55 325 55q96 0 174 -14q84 -16 152 -43q84 -35 127 -61q45 -29 102 -82l-100 -152q-12 -18 -35 -33q-18 -12 -43 -12q-31 0 -63 20q-18 10 -78 41q-25 12 -74 29q-27 8 -80 17q-43 6 -94 6q-94 0 -174 -35 q-78 -35 -133 -96q-51 -55 -84 -150q-31 -86 -31 -197q0 -119 33 -208q35 -94 90 -156q59 -66 137 -98.5t174 -32.5q72 0 127 12q59 14 105 33v225h-148q-33 0 -51 18.5t-18 43.5v192h530v-631q-51 -39 -119 -71q-70 -35 -133 -52q-78 -20 -149.5 -28t-169.5 -8 q-168 0 -303 57q-141 59 -242 160q-102 102 -159.5 241t-57.5 303z" />
<glyph unicode="H" horiz-adv-x="1548" d="M123 0v1491h348v-623h606v623h348v-1491h-348v631h-606v-631h-348z" />
<glyph unicode="I" horiz-adv-x="655" d="M154 0v1491h348v-1491h-348z" />
<glyph unicode="J" horiz-adv-x="880" d="M16 10l19 203q2 27 20 41q20 16 54 16q27 0 43 -4q25 -6 61 -6q45 0 88 14q35 12 61 45q23 29 37 87q12 53 13 126v959h346v-950q0 -126 -31 -228q-31 -98 -94 -176q-59 -72 -157.5 -112.5t-225.5 -40.5q-59 0 -115 6q-66 8 -119 20z" />
<glyph unicode="K" horiz-adv-x="1462" d="M123 0v1491h346v-602h55q78 0 111 47l336 487q29 41 63 56q29 12 86 12h301l-442 -602q-20 -29 -49 -53q-23 -20 -53 -37q45 -16 71 -39q33 -27 60 -68l450 -692h-309q-23 0 -51 4q-22 3 -37 12q-10 6 -25 21q-16 16 -22 26l-338 519q-18 29 -47 41q-27 12 -76 12h-84 v-635h-346z" />
<glyph unicode="L" horiz-adv-x="1062" d="M123 0v1491h346v-1215h553v-276h-899z" />
<glyph unicode="M" horiz-adv-x="1923" d="M123 0v1491h264h39q18 0 31 -6q16 -8 24 -17q10 -10 21 -30l383 -756q33 -61 41 -80l37 -86l36 86q20 47 39 82l383 754q10 20 21 30q8 8 24 17q12 6 31 6h39h264v-1491h-305v858q0 61 6 135l-395 -768q-16 -35 -49 -53q-31 -18 -72 -18h-47q-41 0 -72 18q-33 18 -49 53 l-397 770l6 -71q2 -25 2 -66v-858h-305z" />
<glyph unicode="N" horiz-adv-x="1548" d="M123 0v1491h182q5 0 14.5 0.5t13.5 0.5q7 0 11 -1q16 -4 27 -8q2 0 22 -17q8 -6 27 -28l708 -895l-6 84q-2 27 -2 75v789h305v-1491h-180q-40 0 -67 12q-31 14 -54 45l-702 889q0 -12 1 -37.5t3 -38.5q2 -25 2 -71v-799h-305z" />
<glyph unicode="O" horiz-adv-x="1638" d="M45 745q0 164 55.5 303.5t157.5 241.5q101 101 246 160q141 57 317 57q178 0 317.5 -57t243.5 -162q102 -102 158 -241q55 -137 55 -302q0 -160 -55 -299q-55 -137 -158 -243q-98 -102 -243 -162q-139 -57 -318 -57q-176 0 -317 57q-145 59 -246 162q-102 106 -158 243 q-55 139 -55 299zM399 745q0 -106 29 -198q29 -90 82 -150q59 -66 133 -94q86 -33 178 -33q96 0 178 33q72 29 131 94q53 59 82 150q29 92 29 198q0 109 -29 201q-29 90 -82 150q-55 61 -131 94q-74 33 -178 33q-100 0 -178 -33t-133 -94q-53 -59 -82 -150q-29 -92 -29 -201 z" />
<glyph unicode="P" horiz-adv-x="1306" d="M123 0v1491h526q157 0 271 -37q111 -35 186 -102q74 -66 108 -156q35 -92 35 -192q0 -113 -37 -205q-39 -94 -108 -160q-72 -66 -186.5 -102.5t-268.5 -36.5h-180v-500h-346zM469 760h180q137 0 195 63q59 66 59 181q0 53 -14 94q-14 39 -47 71.5t-80 47.5 q-53 16 -113 16h-180v-473z" />
<glyph unicode="Q" horiz-adv-x="1638" d="M45 745q0 164 55.5 303.5t157.5 241.5q101 101 246 160q141 57 317 57q178 0 317.5 -57t243.5 -162q102 -102 158 -241q55 -137 55 -302q0 -86 -20 -184q-16 -82 -57 -166q-39 -80 -92.5 -145.5t-122.5 -116.5l376 -412h-284q-68 0 -113 15q-51 16 -88 59l-186 209 q-66 -12 -90 -16q-31 -4 -97 -4q-176 0 -317 57q-145 59 -246 162q-102 106 -158 243q-55 139 -55 299zM399 745q0 -106 29 -198q29 -90 82 -150q59 -66 133 -94q86 -33 178 -33q96 0 178 33q72 29 131 94q53 59 82 150q29 92 29 198q0 109 -29 201q-29 90 -82 150 q-55 61 -131 94q-74 33 -178 33q-100 0 -178 -33t-133 -94q-53 -59 -82 -150q-29 -92 -29 -201z" />
<glyph unicode="R" horiz-adv-x="1361" d="M123 0v1491h485q166 0 277 -33q113 -33 186 -92q68 -53 105 -141q33 -78 32 -176q0 -63 -20 -136q-16 -61 -58 -120q-33 -47 -94 -97q-59 -47 -127 -71q31 -16 64 -43t53 -62l317 -520h-313q-88 0 -125 66l-248 434q-14 27 -39 41q-22 12 -61 12h-88v-553h-346zM469 791 h139q72 0 121 18q53 20 82 49t45 74q14 41 14 92q0 98 -63 154q-66 55 -199 55h-139v-442z" />
<glyph unicode="S" horiz-adv-x="1110" d="M14 180l103 162q14 20 30 31q18 10 46 10q31 0 61 -18q16 -12 36.5 -24.5l35.5 -21.5q35 -20 90 -40q57 -20 121 -21q98 0 147 41q51 43 51 131q0 51 -28 86q-25 29 -76 53q-53 25 -107 39q-23 6 -66.5 20.5t-54.5 16.5q-63 18 -120 49q-70 37 -107 76q-51 53 -76 119 q-29 74 -28 176q0 82 34 164q35 84 99 143q65 61 160 98q94 37 219 37q80 0 133 -10q82 -16 123 -31q70 -27 110 -51q59 -37 90 -65l-86 -162q-16 -27 -32 -37q-18 -12 -43 -12q-23 0 -52 16l-61 33q-27 14 -78 33q-45 16 -100 16q-96 0 -146 -43q-47 -41 -47 -113 q0 -41 29 -73q25 -27 76 -52q41 -20 106 -38q41 -12 123 -41q61 -20 121 -52q61 -31 106 -75q51 -51 76 -113q29 -70 29 -158q0 -106 -37 -194q-39 -94 -102 -158q-66 -66 -168 -104q-104 -39 -228 -39q-72 0 -141 14q-61 12 -139 41q-70 25 -127 61q-68 43 -105 80z" />
<glyph unicode="T" horiz-adv-x="1226" d="M20 1217v274h1186v-274h-420v-1217h-346v1217h-420z" />
<glyph unicode="U" horiz-adv-x="1486" d="M102 608v883h347v-881q0 -74 20 -141q18 -61 57 -107q35 -39 92 -65q51 -23 125 -23t125 23q57 27 93 65q41 47 57 105q20 68 20 141v883h346v-883q0 -133 -45 -252q-43 -113 -127 -196q-88 -88 -200 -131q-117 -45 -268.5 -45t-268.5 45q-113 43 -201 131 q-84 84 -127 196q-45 119 -45 252z" />
<glyph unicode="V" horiz-adv-x="1509" d="M0 1491h279q47 0 73 -21q31 -23 41 -53l289 -799q31 -86 39 -114q25 -82 37 -127q10 45 35 127q20 68 36 114l287 799q8 27 39 51q29 23 74 23h280l-598 -1491h-313z" />
<glyph unicode="W" horiz-adv-x="2193" d="M10 1491h291q47 0 76 -21q31 -20 39 -53l205 -778l20 -82q6 -29 14 -90q4 18 25 92l10 36.5l12 43.5l242 778q8 27 39 51q29 23 74 23h102q43 0 74 -18q27 -16 41 -56l239 -778q6 -16 8.5 -25.5t6.5 -21.5t8 -29q14 -45 23 -88q2 10 7 41t9 45l18 78l205 778 q10 33 39 53.5t74 20.5h272l-461 -1491h-313l-281 926l-7 21.5t-7 23.5q-2 6 -8 25.5t-8 29.5q-2 -10 -7.5 -30.5t-7.5 -24.5q-2 -8 -7 -23.5l-7 -21.5l-285 -926h-313z" />
<glyph unicode="X" horiz-adv-x="1458" d="M10 0l482 766l-463 725h346q35 0 49 -8q18 -10 29 -29l297 -504q2 4 6 13.5t6 13.5l14 27l260 446q23 41 70 41h332l-467 -709l477 -782h-346q-33 0 -55 16q-18 12 -33 39l-299 523q-12 -29 -19 -39l-278 -484q-12 -20 -33 -39q-18 -16 -51 -16h-324z" />
<glyph unicode="Y" horiz-adv-x="1386" d="M-20 1491h305q45 0 71 -21q29 -23 43 -53l211 -434q12 -27 24.5 -50.5t22.5 -45.5q27 -51 39 -88q20 57 37 90q2 6 45 94l209 434q10 20 17 27l24 24q8 8 33 17q18 6 39 6h307l-541 -924v-567h-346v567z" />
<glyph unicode="Z" horiz-adv-x="1249" d="M41 0v133q0 25 8 47q10 25 23 41l702 1004h-676v266h1116v-123q0 -31 -8 -53q-12 -31 -24 -49l-701 -1000h711v-266h-1151z" />
<glyph unicode="[" horiz-adv-x="614" d="M92 -332v1925h459v-118q0 -35 -23 -56q-27 -23 -59 -22h-113v-1532h113q37 0 59.5 -20.5t22.5 -53.5v-123h-459z" />
<glyph unicode="\" horiz-adv-x="827" d="M-37 1532h135q57 0 99 -27q39 -25 61 -80l582 -1527h-135q-16 0 -50 8q-29 6 -47 20q-25 16 -41 37q-20 23 -28 49z" />
<glyph unicode="]" horiz-adv-x="614" d="M63 -209q0 33 23 53.5t59 20.5h113v1532h-113q-33 0 -59 22q-23 20 -23 56v118h459v-1925h-459v123z" />
<glyph unicode="^" d="M90 786l395 705h207l395 -705h-233q-27 0 -47 15q-14 10 -29 35l-127 241l-33 64q-4 8 -24 59q-4 -12 -13.5 -33.5t-11.5 -25.5q-10 -27 -30 -64l-123 -241q-10 -18 -31 -35q-16 -14 -49 -15h-246z" />
<glyph unicode="_" horiz-adv-x="806" d="M0 -111h807v-198h-807v198z" />
<glyph unicode="`" horiz-adv-x="675" d="M-39 1507h297q49 0 72 -14q20 -12 41 -47l139 -250h-180q-33 0 -58 10q-23 10 -45 33z" />
<glyph unicode="a" horiz-adv-x="1103" d="M72 276q0 55 28 117q27 55 101 107q70 49 188.5 81.5t302.5 36.5v46q0 90 -39 135q-35 41 -108 41q-55 0 -92 -13q-31 -10 -64 -28q-18 -10 -55 -27q-27 -12 -64 -12q-29 0 -55 16q-25 16 -37 39l-57 98q90 82 213 127q111 41 252 41q98 0 174 -30.5t131 -85.5 q53 -53 81.5 -133t28.5 -168v-664h-145q-43 0 -67.5 12.5t-38.5 50.5l-23 60q-61 -51 -76 -62q-35 -23 -78 -43q-35 -16 -84 -26q-39 -8 -98 -8q-76 0 -133 18t-100 55q-41 35 -63.5 92t-22.5 127zM375 291q0 -53 31 -76q33 -23 86 -22q57 0 106 22q51 25 94 70v147 q-88 -2 -155 -16q-61 -12 -99 -31q-39 -18 -49 -41q-14 -28 -14 -53z" />
<glyph unicode="b" d="M123 0v1532h317v-582q49 49 135 92q70 35 177 35q86 0 153 -35q71 -37 123 -104q47 -59 80 -170q29 -94 29 -227q0 -123 -33 -222q-35 -104 -94 -176q-66 -78 -144 -118q-80 -41 -184 -41q-51 0 -84 8q-43 10 -70 26q-41 25 -57 41q-33 33 -49 52l-12 -54q-6 -31 -27 -45 q-18 -12 -49 -12h-211zM440 289q37 -41 78 -56q45 -16 88 -16q49 0 82 16.5t64 57.5q28 37 43 98q14 57 14 152q0 82 -12 139q-12 53 -35 94q-18 33 -53 49q-33 16 -68 16.5t-63 -5.5q-27 -6 -52 -19q-16 -8 -45 -33q-14 -12 -41 -43v-450z" />
<glyph unicode="c" horiz-adv-x="995" d="M53 532q0 115 35 216q35 102 100 174q63 70 166 114q94 41 230 41q127 0 219 -39t170 -116l-84 -111q-16 -18 -29 -29q-14 -10 -37 -10q-29 0 -43 10q-18 12 -43 27l-53 25q-25 10 -80 10q-59 0 -100 -20.5t-70 -61.5q-29 -43 -41 -98q-14 -68 -14 -132q0 -150 59 -233 q57 -82 162 -82q51 0 88 14q33 12 53 31q8 6 20.5 14.5t22.5 16.5q16 14 47 14q39 0 58 -28l92 -113q-49 -55 -104.5 -92t-110.5 -56q-63 -20 -115 -26q-78 -8 -110 -8q-98 0 -186.5 36.5t-155.5 106.5q-66 70 -107 172q-39 98 -39 233z" />
<glyph unicode="d" d="M51 528q0 121 33 220q37 109 92 176q61 74 143 116q80 41 187 41q88 0 139 -22q59 -27 103 -64v537h317v-1532h-197q-31 0 -49 12.5t-28 40.5l-25 82q-29 -31 -66 -61q-39 -33 -75.5 -49.5t-87.5 -30.5q-39 -10 -101 -10q-83 0 -153 36q-72 37 -123 107q-47 66 -80 170 q-29 94 -29 231zM379 528q0 -86 12 -143q10 -51 35 -92q20 -35 53 -51q29 -14 68 -15q35 0 63 6q18 4 52 21q29 14 45 29q6 6 41 45v450q-37 41 -78 55.5t-88 14.5q-49 0 -82 -17q-35 -18 -64 -55q-27 -35 -43 -100q-14 -58 -14 -148z" />
<glyph unicode="e" horiz-adv-x="1114" d="M53 553q0 108 37 203t105 166q72 74 163 114q94 41 220 41q109 0 192 -33q94 -37 152 -94q61 -61 98 -153q35 -88 35 -205q0 -45 -2 -60q-4 -23 -12.5 -35t-22.5 -18q-8 -4 -35 -4h-612q16 -133 80 -194q61 -59 170 -60q55 0 96 12q20 6 69 31l26.5 15.5t31.5 15.5 q25 12 55 12q39 0 57 -28l93 -113q-47 -51 -107 -92q-55 -37 -117 -56q-74 -23 -118 -26q-82 -8 -115 -8q-111 0 -209 36q-100 37 -172 107q-70 66 -115 180q-43 107 -43 246zM373 659h397q0 33 -10 74q-8 35 -31 64q-20 27 -57 45t-88 18q-88 0 -142 -53q-55 -56 -69 -148z " />
<glyph unicode="f" horiz-adv-x="741" d="M20 934v127h150v59q0 96 29 166q31 76 84 125q55 52 135 80q82 29 178 29q49 0 72 -4q45 -8 69 -15l-6 -153q0 -12 -8 -29q-4 -10 -18 -16q-14 -8 -27 -11q-8 -2 -27 -2q-43 0 -73 -8q-34 -9 -56 -31q-23 -23 -35 -55q-10 -29 -10 -86v-49h250v-217h-240v-844h-317v844 l-70 14q-37 10 -57 27q-23 18 -23 49z" />
<glyph unicode="g" horiz-adv-x="1071" d="M14 -86q0 70 43 119q41 47 119 76q-37 25 -57 59q-23 39 -23 94q0 27 8 49q12 31 27 51q25 33 43 48q33 27 64 41q-84 43 -132 114q-47 70 -47 170q0 78 35 143.5t92 108.5q63 47 138 70q80 25 174 24q55 0 127 -14q51 -10 112 -39h320v-115q0 -27 -15 -41 q-16 -16 -51 -24l-78 -17q14 -43 15 -96q0 -80 -33 -143q-35 -66 -92 -109q-61 -45 -135 -67q-80 -25 -170 -25q-51 0 -95 6q-35 -23 -34 -47q0 -27 28 -39q20 -10 74 -16q45 -6 107 -6q57 0 118 -6q49 -4 123 -21q63 -12 105 -41q46 -31 73 -80q29 -51 29 -127 q0 -72 -35 -141q-35 -68 -102 -121q-74 -57 -166 -86q-98 -31 -225 -31q-131 0 -215 23q-88 25 -152 61q-57 35 -88 88q-29 52 -29 107zM289 -45q0 -20 10 -41q10 -23 33 -33q31 -14 67 -20q57 -8 105 -8q74 0 112 8q51 10 70 22q29 18 37 35q10 20 10 43q0 25 -16 41 q-15 15 -43 25q-37 12 -64 14q-12 2 -37.5 3t-40.5 1q-57 4 -86 4q-33 0 -90 8q-29 -20 -49 -47q-18 -24 -18 -55zM348 729q0 -35 8 -57q10 -27 29 -45q16 -16 45 -29q28 -12 68 -12q78 0 114 41q35 37 35 102.5t-35 99.5q-37 37 -114.5 37t-114.5 -37q-35 -34 -35 -100z " />
<glyph unicode="h" d="M123 0v1532h317v-563q59 49 125 80q63 29 160 28q90 0 154 -28q70 -31 112 -84q45 -53 70 -129q25 -74 24 -160v-676h-317v676q0 80 -35 121q-37 43 -106 43q-49 0 -99 -23q-41 -18 -88 -59v-758h-317z" />
<glyph unicode="i" horiz-adv-x="583" d="M104 1352q0 43 15 73q16 33 41 60q20 20 61 39q37 16 72 16q37 0 76 -16q33 -14 61 -39q23 -20 41 -60q16 -37 16 -73q0 -33 -16 -70q-18 -39 -41 -59q-29 -25 -61 -39q-39 -16 -76 -17q-35 0 -72 17q-41 18 -61 39q-25 27 -41 59q-15 31 -15 70zM133 0v1061h318v-1061 h-318z" />
<glyph unicode="j" horiz-adv-x="579" d="M-63 -348l10 168q4 25 14 33t49 8q27 0 60 8q29 6 39 20q12 14 18 41q6 25 6 68v1063h318v-1063q0 -74 -19 -141q-16 -61 -63 -115q-43 -49 -115 -78q-74 -29 -176 -29q-49 0 -72 5q-2 0 -28.5 4t-40.5 8zM104 1352q0 43 15 73q16 33 41 60q20 20 61 39q37 16 72 16 q37 0 76 -16q33 -14 61 -39q23 -20 41 -60q16 -37 16 -73q0 -33 -16 -70q-18 -39 -41 -59q-29 -25 -61 -39q-39 -16 -76 -17q-35 0 -72 17q-41 18 -61 39q-25 27 -41 59q-15 31 -15 70z" />
<glyph unicode="k" horiz-adv-x="1179" d="M123 0v1532h317v-858h47q31 0 45 8q15 9 31 31l201 299q16 25 40.5 37t61.5 12h291l-274 -377q-14 -23 -43 -47q-31 -27 -49 -37q46 -34 79 -92l299 -508h-286q-37 0 -62 12q-31 14 -43 41l-200 377q-18 29 -29 33q-20 8 -47 8h-62v-471h-317z" />
<glyph unicode="l" horiz-adv-x="583" d="M133 0v1532h318v-1532h-318z" />
<glyph unicode="m" horiz-adv-x="1763" d="M123 0v1061h196q31 0 49.5 -12.5t28.5 -40.5l17 -58q2 2 57 51q23 18 61 41q29 16 72 27q33 8 84 8q98 0 159.5 -49t94.5 -131q25 45 66 82q37 33 84 57q49 25 94 33q43 8 98 8q94 0 162 -26q72 -29 119 -78q45 -49 71 -127q25 -74 25 -170v-676h-318v676q0 164 -141 164 q-63 0 -106 -43t-43 -121v-676h-318v676q0 92 -35 127q-37 37 -106 37q-41 0 -82 -20.5t-72 -51.5v-768h-317z" />
<glyph unicode="n" d="M123 0v1061h196q31 0 49.5 -12.5t28.5 -40.5l19 -62q41 37 63 53q37 27 70 43.5t82 26.5q39 8 94 8q90 0 154 -28q70 -31 112 -84q45 -53 70 -129q25 -74 24 -160v-676h-317v676q0 80 -35 121q-37 43 -106 43q-49 0 -99 -23q-41 -18 -88 -59v-758h-317z" />
<glyph unicode="o" d="M51 532.5q0 129.5 39 227.5q41 102 113 172q76 72 172 108q98 37 221 37q121 0 219 -37q102 -39 172 -108q71 -71 111 -172q39 -98 39 -227.5t-39 -227.5q-41 -104 -110.5 -174t-172.5 -108q-104 -39 -219 -39q-117 0 -221 39q-96 37 -172 108q-72 68 -113 174 q-39 98 -39 227.5zM379 532q0 -160 51 -235q53 -78 166 -78q109 0 162 78q51 76 51 235q0 158 -51 234q-53 78 -162 78q-113 0 -166 -78q-51 -76 -51 -234z" />
<glyph unicode="p" horiz-adv-x="1183" d="M123 -336v1397h196q31 0 49.5 -12.5t28.5 -40.5l25 -78q35 39 65 61q49 37 76 49q40 18 86 31q39 10 103 10q83 0 153 -37q72 -37 123 -106q47 -66 80 -170q29 -94 29 -227q0 -123 -33 -222q-35 -104 -94 -176q-66 -78 -144 -118q-80 -41 -184 -41q-84 0 -139 24 q-66 29 -103 62v-406h-317zM440 289q37 -41 78 -56q45 -16 88 -16q49 0 82 16.5t64 57.5q28 37 43 98q14 57 14 152q0 82 -12 139q-12 53 -35 94q-18 33 -53 49q-33 16 -68 16.5t-63 -5.5q-27 -6 -52 -19q-16 -8 -45 -33q-14 -12 -41 -43v-450z" />
<glyph unicode="q" d="M51 528q0 121 33 220q37 109 92 176q61 74 143 116q80 41 187 41q53 0 88 -8q45 -10 70 -22q39 -20 61 -37q29 -23 53 -47l13 41q18 53 77 53h197v-1397h-317v451q-59 -55 -136 -95q-74 -37 -176 -36q-83 0 -153 36q-72 37 -123 107q-47 66 -80 170q-29 94 -29 231z M379 528q0 -86 12 -143q10 -51 35 -92q20 -35 53 -51q29 -14 68 -15q35 0 63 6q18 4 52 21q29 14 45 29q6 6 41 45v450q-35 39 -78 53q-45 16 -88 17q-49 0 -82 -17q-35 -18 -64 -55q-27 -35 -43 -100q-14 -58 -14 -148z" />
<glyph unicode="r" horiz-adv-x="845" d="M123 0v1061h188q18 0 39 -4q14 -2 27 -13q10 -8 16 -22q8 -20 10 -35l19 -98q59 90 131 141t158 51q76 0 116 -32l-41 -234q-2 -20 -16 -30.5t-33 -10.5q-16 0 -41 6q-16 4 -59 4q-125 0 -197 -133v-651h-317z" />
<glyph unicode="s" horiz-adv-x="901" d="M23 115l73 116q12 20 31 33q16 10 49 10q28 0 49 -12q10 -6 23.5 -11t25.5 -13q27 -16 60 -29q34 -12 86 -12q31 0 63 8q23 6 41 20q12 10 20.5 30.5t8.5 35.5q0 31 -21 51q-16 16 -57 35q-35 16 -80 29q-29 8 -90 28q-53 18 -90 39q-53 31 -80 59q-39 43 -57 86 q-20 49 -21 123q0 61 27 129q25 61 78 109q49 43 131 72q78 27 184 26q61 0 110.5 -8t100.5 -29q37 -14 86 -45q43 -27 70 -53l-72 -113q-8 -14 -27 -26q-10 -8 -34 -8q-27 0 -45 8l-22.5 9l-27.5 11q-29 14 -59 23q-37 10 -74 10q-61 0 -92 -25q-33 -27 -33 -63 q0 -31 21 -49q25 -20 55 -35q35 -16 80 -29q29 -8 90 -28q37 -12 90 -39q47 -25 80 -53q31 -29 55 -80q20 -43 21 -111q0 -74 -29 -143q-25 -59 -86 -115q-53 -47 -139 -76q-80 -27 -193 -26q-47 0 -108 10q-59 10 -105 26q-55 20 -94 43q-46 27 -73 52z" />
<glyph unicode="t" horiz-adv-x="819" d="M35 905v123l170 33l61 260q12 49 70 49h166v-309h258v-217h-258v-529q0 -37 18.5 -61.5t50.5 -24.5q12 0 29 4q12 4 21 9l16 8q8 4 18 4q12 0 23 -6q8 -6 18 -23l97 -149q-59 -45 -138 -70q-70 -23 -159 -22q-72 0 -134 22q-58 22 -98 62q-37 37 -59 98q-20 55 -21 129 v549h-90q-25 0 -41 14q-18 14 -18 47z" />
<glyph unicode="u" d="M102 389v672h318v-672q0 -82 35 -123q37 -43 106 -43q49 0 98.5 22.5t88.5 59.5v756h317v-1061h-197q-59 0 -77 53l-21 62q-31 -31 -61 -54q-23 -16 -72 -41q-33 -16 -80 -26t-94 -10q-86 0 -154 30q-70 31 -112 84q-45 55 -70 127q-25 74 -25 164z" />
<glyph unicode="v" horiz-adv-x="1132" d="M10 1061h264q35 0 58 -14q20 -12 30 -39l148 -478l33 -112q10 -37 26 -111q8 37 29 111l35 112l153 478q8 23 31 39q20 14 53 14h252l-411 -1061h-289z" />
<glyph unicode="w" horiz-adv-x="1665" d="M0 1061h254q35 0 57 -14q25 -16 31 -39l107 -478q20 -90 22 -104l18 -102l31 100l31 106l133 478q6 25 29 39q27 16 55 16h141q31 0 58 -16q25 -16 30 -39l127 -478l29 -104q20 -70 29 -104q12 70 20 102l25 106l112 478q6 25 29 39t55 14h242l-330 -1061h-258 q-20 0 -35 12q-12 10 -22 41l-152 529q-4 14 -10 32.5t-10 38.5l-17 70q-8 -43 -14 -72q-8 -33 -20 -69l-154 -529q-16 -53 -68 -53h-245z" />
<glyph unicode="x" horiz-adv-x="1173" d="M20 0l357 549l-342 512h305q35 0 49 -8q18 -10 29 -29l188 -315q4 12 17 36q8 16 20 37l135 238q10 23 29 33q14 8 41 8h291l-342 -498l356 -563h-305q-31 0 -53 16q-20 14 -35 39l-191 326q-4 -12 -12 -32.5t-14 -29.5l-156 -264q-12 -20 -33 -39q-18 -16 -51 -16h-283z " />
<glyph unicode="y" horiz-adv-x="1132" d="M0 1061h281q35 0 57 -17q18 -12 29 -36l174 -459q29 -76 41 -127q12 45 20 65l25 64l157 457q8 25 33 39q23 14 51 14h256l-567 -1335q-16 -35 -35 -48q-20 -14 -65 -14h-238l205 430z" />
<glyph unicode="z" horiz-adv-x="976" d="M66 0v129q0 23 10 49q10 23 30 55l447 594h-459v234h821v-127q0 -31 -12 -62q-10 -25 -29 -51l-444 -585h475v-236h-839z" />
<glyph unicode="{" horiz-adv-x="614" d="M14 543v178q33 0 51.5 8t32.5 29q12 18 18.5 42.5t6.5 55.5q0 45 -6 90l-13 94l-12 93q-6 47 -6 94q0 84 24.5 151.5t73.5 116.5q47 47 129 74q76 25 187 24h53v-135q0 -12 -8 -28q-6 -12 -17 -19q-12 -8 -20 -10q-16 -4 -21 -4q-63 0 -94 -41q-31 -40 -31 -111 q0 -74 5 -106q2 -16 5 -48t5 -49q2 -25 5 -47t5 -45q4 -31 4 -90q0 -33 -10 -74q-9 -37 -31 -67q-20 -29 -51 -53q-27 -20 -72 -35q39 -12 72 -35q27 -18 51 -53q23 -33 31 -66q10 -41 10 -76q0 -59 -4 -90q-2 -23 -5 -45t-5 -47q-2 -16 -5 -48t-5 -48q-4 -33 -5 -107 q0 -71 31 -110q31 -41 94 -41q12 0 20.5 -2t20.5 -10q8 -6 17 -21q8 -16 8 -27v-137h-53q-102 0 -187 27q-82 27 -129 74q-49 49 -73.5 116.5t-24.5 151.5q0 49 6 94l12 92l13 92q6 45 6 91q0 63 -25 100t-84 37z" />
<glyph unicode="|" horiz-adv-x="614" d="M184 -336v1929h246v-1929h-246z" />
<glyph unicode="}" horiz-adv-x="614" d="M61 -195q0 10 9 27q8 14 16 21q12 8 20.5 10t20.5 2q63 0 94 41q31 40 31 110q0 74 -4 107q-2 16 -5 48t-5 48q-2 25 -5.5 47.5t-5.5 44.5q-4 31 -4 90q0 35 10 76q8 33 31 66q25 35 51 53q35 25 70 35q-43 12 -70 35q-31 25 -51 53q-22 31 -31 67q-10 41 -10 74 q0 59 4 90q2 23 5.5 45.5t5.5 46.5q2 16 5 48t5 49q4 33 4 106q0 71 -31 111q-31 41 -94 41q-4 0 -21 4q-8 2 -20 10q-10 6 -16 19q-8 16 -9 28v135h54q111 0 186 -24q82 -27 129 -74q49 -49 73.5 -116.5t24.5 -151.5q0 -47 -6 -94l-12 -93l-12 -94q-6 -45 -6 -90 q0 -31 6 -55.5t18 -42.5q14 -20 32.5 -28.5t51.5 -8.5v-178q-59 0 -83.5 -37t-24.5 -100q0 -45 6 -91l12 -92l12 -92q6 -45 6 -94q0 -84 -24.5 -151.5t-73.5 -116.5q-47 -47 -129 -74q-84 -27 -186 -27h-54v137z" />
<glyph unicode="~" d="M82 393q0 92 22 158q25 70 68 119t104 73q68 27 144 27q53 0 102 -12q53 -14 88 -27l76 -26q34 -12 62 -13q47 0 75 33q27 29 27 94h256q0 -92 -23 -157q-25 -70 -67.5 -119t-104.5 -74q-68 -27 -143 -27q-53 0 -102 13q-53 14 -88 26l-76 27q-34 12 -62 12 q-47 0 -75 -33q-27 -29 -27 -94h-256z" />
<glyph unicode="&#xa2;" d="M111 532q0 106 34 207q33 96 101 170q63 70 167.5 115t227.5 51l14 144q2 27 25 51q20 25 59 24h117l-25 -233q78 -18 144 -53q61 -33 119 -86l-82 -107q-12 -16 -27 -29q-10 -8 -37 -8q-20 0 -30 4l-14.5 7.5l-14.5 7.5q-16 8 -37 16q-2 2 -43 16l-64 -612q35 4 74 21 l53 26q8 4 22.5 13.5t20.5 11.5q20 10 43 10q12 0 33 -8q18 -6 25 -17l88 -110q-37 -43 -86 -76q-53 -35 -94 -53q-33 -14 -99 -31q-53 -14 -102 -16l-12 -129q-2 -25 -27 -52q-20 -25 -57 -24h-117l20 211q-86 14 -165 59q-78 45 -134 111q-57 70 -88 162q-32 97 -32 206z M424 532q0 -109 35 -184q33 -72 98 -106l59 598q-100 -20 -145 -101q-47 -82 -47 -207z" />
<glyph unicode="&#xa3;" d="M29 602v98q0 39 26 72q25 31 78 31h86v221q0 98 31 184q33 92 90 155.5t152 104.5q90 39 217 39q86 0 149 -20q72 -23 121 -57.5t92 -88.5q35 -43 70 -108l-127 -82q-35 -20 -72 -21q-49 0 -86 41q-39 39 -70 58q-35 20 -77 20q-84 0 -123 -57q-41 -59 -41 -168v-221h389 v-121q0 -16 -6 -29q-8 -16 -19 -26q-8 -8 -28.5 -16.5t-34.5 -8.5h-301v-160q0 -66 -23 -110q-27 -51 -63 -92q57 12 94 16q46 6 92 6h514v-131q0 -18 -10 -45t-27 -43q-18 -18 -42.5 -30.5t-55.5 -12.5h-977v190q35 6 66 19q29 12 55 35q18 16 37 49q14 27 14 67v242h-190z " />
<glyph unicode="&#xa5;" d="M-20 1491h264q43 0 71 -18q27 -16 43 -56l170 -434l39 -102q16 -43 27 -90q9 46 24 92l37 100l168 434q14 35 41 53q29 20 72 21h266l-399 -836h254v-170h-307v-90h307v-170h-307v-225h-318v225h-307v170h307v90h-307v170h254z" />
<glyph unicode="&#xa9;" horiz-adv-x="1607" d="M41 745q0 111 27 205q25 86 77 180q49 86 119 156q72 72 154 119q84 49 182 76q94 27 202.5 26.5t203.5 -26.5q98 -27 182 -76q86 -49 155.5 -118.5t118.5 -156.5q53 -94 78 -180q27 -94 27 -205q0 -106 -27 -200q-25 -90 -78 -183q-47 -82 -119 -153q-70 -70 -155 -119 q-92 -53 -182 -78q-94 -27 -203 -26q-106 0 -200.5 26.5t-184.5 77.5q-82 47 -153.5 119t-119.5 153q-53 92 -77 183q-27 94 -27 200zM211 745q0 -131 45 -241q47 -115 125 -197q78 -80 188 -131q102 -47 234 -47q129 0 235 47q113 49 191 131q82 84 127 197q45 111 45 241 q0 92 -21 168q-23 80 -59 150q-39 72 -92 125q-63 63 -123 98q-68 41 -143 62q-74 20 -160 20q-131 0 -234 -47q-113 -51 -188 -133q-80 -86 -125 -197t-45 -246zM352 750q0 106 37 192q39 90 100 152q59 59 150 98q86 37 186 37q115 0 203 -41q82 -39 137 -103l-84 -112 q-2 -2 -9 -8.5l-11 -10.5q-12 -12 -33 -12q-18 0 -35 10q-29 16 -35 21q-16 10 -45 20q-31 10 -71 11q-102 0 -155.5 -70t-53.5 -184q0 -55 14 -109q14 -51 37 -80q25 -31 59 -47q37 -16 76 -16q51 0 76 8q31 10 47 18t33 21q14 10 33 10q12 0 24 -6q4 -2 19 -17l104 -106 q-55 -76 -145 -117q-86 -39 -207 -39q-102 0 -187 37q-82 37 -141 102.5t-90 151.5q-33 93 -33 189z" />
<glyph unicode="&#xad;" horiz-adv-x="757" d="M102 496v254h553v-254h-553z" />
<glyph unicode="&#xae;" horiz-adv-x="1607" d="M41 745q0 111 27 205q25 86 77 180q49 86 119 156q72 72 154 119q84 49 182 76q94 27 202.5 26.5t203.5 -26.5q98 -27 182 -76q86 -49 155.5 -118.5t118.5 -156.5q53 -94 78 -180q27 -94 27 -205q0 -106 -27 -200q-25 -90 -78 -183q-47 -82 -119 -153q-70 -70 -155 -119 q-92 -53 -182 -78q-94 -27 -203 -26q-106 0 -200.5 26.5t-184.5 77.5q-82 47 -153.5 119t-119.5 153q-53 92 -77 183q-27 94 -27 200zM211 745q0 -131 45 -241q47 -115 125 -197q78 -80 188 -131q102 -47 234 -47q117 0 221 43t182 115h-221q-55 0 -78 41l-94 237 q-12 18 -25 25q-16 8 -36 8h-33v-311h-275v923h361q102 0 176 -18q72 -18 123 -53q47 -33 70 -86q23 -55 22 -117q0 -37 -10 -82q-9 -40 -31 -74q-18 -29 -55 -59q-31 -27 -80 -45q31 -14 51 -39q23 -27 37 -57l127 -265q80 86 121 193q45 117 45 237q0 92 -21 168 q-23 80 -59 150q-39 72 -92 125q-63 63 -123 98q-68 41 -143 62q-74 20 -160 20q-131 0 -234 -47q-113 -51 -188 -133q-80 -86 -125 -197t-45 -246zM719 786h65q51 0 78 6.5t43 22.5q12 12 17 37q4 29 4 49q0 23 -4 47q-4 20 -17 33q-18 18 -35 23q-25 6 -65 6h-86v-224z " />
<glyph unicode="&#xb4;" horiz-adv-x="675" d="M184 1196l140 250q20 35 41 47q23 14 71 14h307l-266 -268q-23 -23 -45 -33q-25 -10 -57 -10h-191z" />
<glyph unicode="&#x2000;" horiz-adv-x="845" />
<glyph unicode="&#x2001;" horiz-adv-x="1693" />
<glyph unicode="&#x2002;" horiz-adv-x="845" />
<glyph unicode="&#x2003;" horiz-adv-x="1693" />
<glyph unicode="&#x2004;" horiz-adv-x="563" />
<glyph unicode="&#x2005;" horiz-adv-x="421" />
<glyph unicode="&#x2006;" horiz-adv-x="280" />
<glyph unicode="&#x2007;" horiz-adv-x="280" />
<glyph unicode="&#x2008;" horiz-adv-x="210" />
<glyph unicode="&#x2009;" horiz-adv-x="337" />
<glyph unicode="&#x200a;" horiz-adv-x="92" />
<glyph unicode="&#x2010;" horiz-adv-x="757" d="M102 496v254h553v-254h-553z" />
<glyph unicode="&#x2011;" horiz-adv-x="757" d="M102 496v254h553v-254h-553z" />
<glyph unicode="&#x2012;" horiz-adv-x="757" d="M102 496v254h553v-254h-553z" />
<glyph unicode="&#x2013;" d="M174 512v217h840v-217h-840z" />
<glyph unicode="&#x2014;" horiz-adv-x="1763" d="M174 512v217h1415v-217h-1415z" />
<glyph unicode="&#x2018;" horiz-adv-x="483" d="M86 1229q0 109 57 209q57 98 170 186l101 -59q12 -9 18 -18.5t6 -18.5q0 -12 -6 -23l-12 -18q-16 -16 -25 -29q-20 -31 -26 -43q-12 -23 -21 -53q-8 -27 -8 -64q0 -35 12 -77q12 -45 41 -91q12 -20 13 -32q0 -16 -13 -33q-10 -12 -35 -23l-190 -71q-45 74 -62 129 q-20 72 -20 129z" />
<glyph unicode="&#x2019;" horiz-adv-x="483" d="M78 1032q0 16 4 23l12 18q16 16 25 29q25 37 26 41q10 23 21 53q10 35 10 66q0 29 -14 77q-10 39 -43 91q-8 14 -8 32q0 16 12 33q10 12 33 23l190 71q45 -72 62 -131q18 -66 18 -127q0 -109 -57.5 -209t-167.5 -186l-101 59q-12 9 -18 19q-4 6 -4 18z" />
<glyph unicode="&#x201c;" horiz-adv-x="849" d="M86 1229q0 109 57 209q57 98 170 186l101 -59q12 -9 18 -18.5t6 -18.5q0 -12 -6 -23l-12 -18q-16 -16 -25 -29q-20 -31 -26 -43q-12 -23 -21 -53q-8 -27 -8 -64q0 -35 12 -77q12 -45 41 -91q12 -20 13 -32q0 -16 -13 -33q-10 -12 -35 -23l-190 -71q-45 74 -62 129 q-20 72 -20 129zM455 1229q0 109 57 209t168 186l100 -59q12 -9 19 -19q4 -6 4 -18q0 -16 -4 -23l-13 -18q-16 -16 -24 -29q-20 -31 -27 -43q-10 -23 -20 -53q-10 -35 -10 -63.5t14 -77.5q10 -39 43 -91q8 -14 8 -32q0 -16 -12 -33q-10 -12 -33 -23l-190 -71q-45 74 -62 129 q-18 64 -18 129z" />
<glyph unicode="&#x201d;" horiz-adv-x="849" d="M78 1032q0 16 4 23l12 18q16 16 25 29q25 37 26 41q10 23 21 53q10 35 10 66q0 29 -14 77q-10 39 -43 91q-8 14 -8 32q0 16 12 33q10 12 33 23l190 71q45 -72 62 -131q18 -66 18 -127q0 -109 -57.5 -209t-167.5 -186l-101 59q-12 9 -18 19q-4 6 -4 18zM442 1032 q0 12 7 23l12 18q16 16 24 29q25 37 27 41q12 23 20 53q8 27 9 66q0 35 -13 77q-12 45 -41 91q-12 20 -12 32q0 16 12 33q10 12 35 23l191 71q45 -72 61 -131q20 -72 21 -127q0 -109 -58 -209q-57 -98 -170 -186l-100 59q-12 9 -18.5 18.5t-6.5 18.5z" />
<glyph unicode="&#x2022;" d="M86 606.5q0 100.5 41 192.5t106 157q63 63 162 107q90 39 197 39q109 0 199 -39q94 -41 159 -107q72 -72 111 -157.5t39 -192t-39 -192.5q-37 -82 -111 -156q-66 -66 -159 -106q-86 -37 -199 -37q-111 0 -197 37q-98 43 -162 106q-66 66 -106 156q-41 92 -41 192.5z" />
<glyph unicode="&#x2026;" horiz-adv-x="1613" d="M61 160q0 33 15 69q12 31 36.5 55.5t57.5 37.5q39 14 72 14q31 0 69 -14q33 -12 58 -37q29 -29 39 -56q14 -37 14 -69.5t-14 -67.5q-10 -27 -39 -55q-25 -25 -58 -37q-39 -14 -69 -14q-33 0 -72 14q-33 12 -57.5 36.5t-36.5 55.5q-15 35 -15 68zM627 160q0 33 14 69 q12 31 36.5 55.5t57.5 37.5q39 14 72 14q31 0 70 -14q33 -12 57 -37q29 -29 39 -56q14 -37 14 -69.5t-14 -67.5q-10 -27 -39 -55q-25 -25 -57 -37q-39 -14 -70 -14q-33 0 -72 14q-33 12 -57.5 36.5t-36.5 55.5q-14 35 -14 68zM1192 160q0 33 14 69q12 31 37 55.5t57 37.5 q39 14 72 14q31 0 70 -14q33 -12 57 -37q29 -29 39 -56q14 -37 14 -69.5t-14 -67.5q-10 -27 -39 -55q-25 -25 -57 -37q-39 -14 -70 -14q-33 0 -72 14q-33 12 -57 36.5t-37 55.5q-14 35 -14 68z" />
<glyph unicode="&#x202f;" horiz-adv-x="337" />
<glyph unicode="&#x205f;" horiz-adv-x="421" />
<glyph unicode="&#x20ac;" d="M41 541v170h100v34v29q0 4 1 14.5t1 14.5h-102v170h123q25 119 78 219q47 90 129 168q76 72 170 108q100 39 200 39q145 0 252 -59t170 -154l-116 -118q-16 -16 -25 -23q-14 -10 -37 -10q-20 0 -41 16q-6 4 -39 33q-23 18 -57 35q-31 14 -92 14q-96 0 -164 -67 q-70 -70 -100 -201h471v-94q0 -14 -6.5 -26.5t-18.5 -25.5q-10 -10 -27 -16q-20 -8 -34 -8h-406q0 -4 -1 -14.5t-1 -14.5v-29v-34h395v-95q0 -14 -6 -26t-18 -25q-10 -10 -27 -16q-20 -8 -35 -8h-293q29 -154 93 -219q68 -72 163 -72q47 0 74 8q37 10 53 21q14 8 35 28 l29 29q8 8 24 20q10 8 31 9q12 0 25 -5q6 -2 20 -16l139 -123q-70 -115 -184 -176q-111 -59 -262 -59q-119 0 -219 41q-98 39 -168 112.5t-117 175.5q-47 106 -65 226h-115z" />
<glyph unicode="&#x2122;" horiz-adv-x="1497" d="M51 1319v172h522v-172h-153v-455h-217v455h-152zM625 864v627h188h23q10 0 18 -4t14 -10q2 -2 6.5 -7.5t8.5 -9.5l96 -223q12 -29 33 -86q6 20 16 45l10 20.5t11 20.5l102 223q16 20 31 27q8 4 39 4h188v-627h-190v258l14 115l-129 -274q-8 -16 -31 -33q-18 -12 -43 -12 h-31q-27 0 -45 12q-20 14 -28 33l-123 270l12 -111v-258h-190z" />
<glyph unicode="&#xe000;" horiz-adv-x="1060" d="M0 1060h1060v-1060h-1060v1060z" />
<glyph unicode="&#xfb01;" horiz-adv-x="1288" d="M20 934v127h150v14q0 98 33 182q34 86 104 148q76 66 176 100q108 37 258 37q61 0 95 -4q57 -6 86 -14l-11 -160q-4 -27 -26.5 -35t-48.5 -8q-100 0 -177 -16q-66 -14 -110 -50q-40 -31 -55 -79q-16 -53 -17 -111v-4h674v-1061h-317v844h-347v-844h-317v844l-70 14 q-37 10 -57 27q-23 18 -23 49z" />
<glyph unicode="&#xfb02;" horiz-adv-x="1306" d="M20 934v127h150v37q0 84 27 157q29 78 82 138q53 57 141 96q82 35 205 35q129 0 188 -4q119 -8 180 -9h178v-1511h-315v1298l-100 7q-33 2 -80 2q-100 0 -148 -54q-51 -57 -51 -155v-37h230v-217h-220v-844h-317v844l-70 14q-37 10 -57 27q-23 18 -23 49z" />
<glyph unicode="&#xfb03;" horiz-adv-x="2066" d="M1587 1352q0 43 15 73q16 33 41 60q20 20 61 39q37 16 72 16q37 0 76 -16q33 -14 61 -39q23 -20 41 -60q16 -37 16 -73q0 -33 -16 -70q-18 -39 -41 -59q-29 -25 -61 -39q-39 -16 -76 -17q-35 0 -72 17q-41 18 -61 39q-25 27 -41 59q-15 31 -15 70zM1616 0v1061h318v-1061 h-318zM761 934v127h150v59q0 96 29 166q31 76 84 125q55 52 135 80q82 29 178 29q49 0 72 -4q45 -8 69 -15l-6 -153q0 -12 -8 -29q-4 -10 -18 -16q-14 -8 -27 -11q-8 -2 -27 -2q-43 0 -73 -8q-34 -9 -56 -31q-23 -23 -35 -55q-10 -29 -10 -86v-49h250v-217h-240v-844h-317 v844l-70 14q-37 10 -57 27q-23 18 -23 49zM20 934v127h150v59q0 96 29 166q31 76 84 125q55 52 135 80q82 29 178 29q49 0 72 -4q45 -8 69 -15l-6 -153q0 -12 -8 -29q-4 -10 -18 -16q-14 -8 -27 -11q-8 -2 -27 -2q-43 0 -73 -8q-34 -9 -56 -31q-23 -23 -35 -55 q-10 -29 -10 -86v-49h250v-217h-240v-844h-317v844l-70 14q-37 10 -57 27q-23 18 -23 49z" />
<glyph unicode="&#xfb04;" horiz-adv-x="2066" d="M1616 0v1532h318v-1532h-318zM761 934v127h150v59q0 96 29 166q31 76 84 125q55 52 135 80q82 29 178 29q49 0 72 -4q45 -8 69 -15l-6 -153q0 -12 -8 -29q-4 -10 -18 -16q-14 -8 -27 -11q-8 -2 -27 -2q-43 0 -73 -8q-34 -9 -56 -31q-23 -23 -35 -55q-10 -29 -10 -86v-49 h250v-217h-240v-844h-317v844l-70 14q-37 10 -57 27q-23 18 -23 49zM20 934v127h150v59q0 96 29 166q31 76 84 125q55 52 135 80q82 29 178 29q49 0 72 -4q45 -8 69 -15l-6 -153q0 -12 -8 -29q-4 -10 -18 -16q-14 -8 -27 -11q-8 -2 -27 -2q-43 0 -73 -8q-34 -9 -56 -31 q-23 -23 -35 -55q-10 -29 -10 -86v-49h250v-217h-240v-844h-317v844l-70 14q-37 10 -57 27q-23 18 -23 49z" />
</font>
</defs></svg> 