<?xml version="1.0" standalone="no"?>
<!DOCTYPE svg PUBLIC "-//W3C//DTD SVG 1.1//EN" "http://www.w3.org/Graphics/SVG/1.1/DTD/svg11.dtd" >
<svg xmlns="http://www.w3.org/2000/svg">
<metadata>
This is a custom SVG webfont generated by Font Squirrel.
Copyright   : Copyright c 2010 by tyPoland Lukasz Dziedzic with Reserved Font Name Lato Licensed under the SIL Open Font License Version 11 
Designer    : Lukasz Dziedzic
Foundry     : tyPoland Lukasz Dziedzic
Foundry URL : httpwwwtypolandcom
</metadata>
<defs>
<font id="webfontFaSudPkB" horiz-adv-x="1187" >
<font-face units-per-em="2048" ascent="1649" descent="-399" />
<missing-glyph horiz-adv-x="395" />
<glyph unicode=" "  horiz-adv-x="395" />
<glyph unicode="&#x09;" horiz-adv-x="395" />
<glyph unicode="&#xa0;" horiz-adv-x="395" />
<glyph unicode="!" horiz-adv-x="684" d="M158 139q0 33 12 62q14 33 31 49q20 20 49 33q28 12 61 12q34 0 62 -12q29 -12 49 -33t32.5 -49.5t12.5 -61.5q0 -34 -12 -61q-12 -29 -33 -49q-16 -16 -49 -31q-28 -12 -62 -12t-61 12q-33 14 -49.5 30.5t-30.5 49.5q-12 27 -12 61zM262 600q0 55 4 150q2 70 13 143 l73 588h228l-72 -588q-14 -104 -33 -182q-2 -12 -18.5 -82t-26.5 -109h-166v41q0 6 -1 19.5t-1 19.5z" />
<glyph unicode="&#x22;" horiz-adv-x="802" d="M203 1024v160l37 295h211l-37 -295l-41 -160q-12 -45 -31 -66q-23 -25 -63 -24q-35 0 -54 24q-16 23 -22 66zM557 1024v160l37 295h211l-37 -295l-41 -160q-12 -41 -33 -66q-23 -25 -63 -24q-35 0 -53 24q-15 19 -21 66z" />
<glyph unicode="#" d="M33 471q0 20 8 47l20 76h197l90 291h-221l33 102q12 39 37 55q29 18 82 19h118l105 336q12 40 43 61q29 20 71 21h113l-133 -418h215l131 418h111q33 0 49 -17q20 -20 20 -45q0 -8 -4 -24l-106 -332h209l-33 -103q-12 -37 -37 -55t-78 -18h-108l-91 -291h150q33 0 45 -10 q16 -12 16 -39q0 -23 -8 -49l-24 -78h-226l-129 -418h-112q-25 0 -45 20q-16 16 -17 50q0 20 4 32l101 316h-215l-103 -328q-14 -47 -49 -70q-33 -20 -72 -20h-108l131 418h-123q-25 0 -41 12t-16 41zM459 594h217l90 291h-217z" />
<glyph unicode="$" d="M37 178l88 113q10 14 29 22q20 10 36 11q18 0 46 -17l16 -12t15 -12.5t22 -14.5q35 -25 69 -43q45 -25 99 -32l96 471q-68 20 -127 43q-59 25 -111 65q-53 43 -81.5 100.5t-28.5 147.5q0 94 35 172q37 83 104 147q66 61 164 107q90 41 217 47l25 129q6 29 26 45 q23 18 47 19h90l-41 -201q106 -18 181 -62q70 -41 123 -100l-70 -88q-16 -25 -29 -31q-14 -8 -37 -8q-18 0 -34 8q-29 14 -45 25l-58 28q-31 14 -72 25l-90 -434l90 -29q18 -6 84 -37q33 -14 74 -45q37 -27 60 -57q27 -35 41 -78q16 -45 16 -98q0 -94 -39 -191 q-37 -92 -106 -161q-68 -68 -170 -113q-100 -45 -226 -53l-30 -154q-6 -27 -27 -43q-20 -18 -47 -18h-90l45 221q-123 16 -217 63q-96 49 -162 123zM438 1073q0 -34 13 -61q12 -27 32 -47q25 -25 54 -39q16 -8 65 -29l78 389q-57 -6 -111 -26q-39 -16 -73 -48 q-31 -29 -43 -63q-15 -43 -15 -76zM608 188q121 14 191 84q68 68 67 172q0 34 -12 62q-10 25 -37 47q-27 25 -53 37q-37 18 -68 28z" />
<glyph unicode="%" horiz-adv-x="1517" d="M61 0l1192 1442q4 4 35 24q18 12 51 13h177l-1194 -1442q-14 -16 -33 -27q-20 -10 -47 -10h-181zM127 1069q0 94 29 176q25 72 80 133q49 55 116.5 86t143.5 31q55 0 110 -22q51 -20 88 -64q41 -47 58 -100q18 -59 18 -131q0 -96 -31 -177q-29 -74 -84 -133 q-51 -53 -116 -84q-68 -31 -136 -30q-57 0 -112 22q-45 18 -86 64q-41 43 -58 98q-20 65 -20 131zM315 1069q0 -33 9 -74q6 -27 22 -47q12 -16 35 -26q16 -8 41 -9q29 0 63 15q27 10 52 45q20 29 32 80q12 49 13 123q0 86 -31 122.5t-76 36.5q-35 0 -63.5 -14t-51.5 -47 q-18 -27 -32 -82q-13 -49 -13 -123zM807 295q0 94 29 176q27 78 77 135q49 55 117 86q63 29 141 29q66 0 115 -21q47 -18 86 -65q41 -49 58 -98q20 -66 20 -131q0 -92 -33 -179q-31 -78 -82 -133q-49 -53 -118 -84q-63 -29 -136 -28q-57 0 -112 22q-47 20 -88 64 q-37 40 -55.5 98t-18.5 129zM995 295q0 -84 29 -119q31 -37 78 -37q25 0 61 15q27 10 51 45q23 33 35.5 82t12.5 122q0 84 -33 123q-29 35 -76 35q-35 0 -63 -14q-25 -12 -50 -47q-23 -33 -34 -82q-11 -41 -11 -123z" />
<glyph unicode="&#x26;" horiz-adv-x="1347" d="M41 356q0 74 27 150q23 66 69.5 129t104.5 106q63 47 131 80q-31 57 -47 129q-14 59 -15 121q0 92 29 164q29 74 88 135q53 57 137 92q78 33 180 33q82 0 142 -22q66 -25 108 -68q47 -47 70 -102q25 -61 25 -136l-148 -28q-20 -4 -24 -4q-35 0 -46 41q-4 23 -20 53 q-12 25 -31 43q-16 16 -43 26q-33 12 -55 13q-43 0 -78 -18.5t-57 -47.5q-25 -31 -37 -71q-14 -47 -14 -87q0 -51 18 -102q14 -43 63 -108l304 -394q33 59 57.5 127t36.5 138q6 27 16 39t37 12h172q-18 -135 -67 -258q-47 -119 -125 -226l245 -315h-213q-23 0 -51 4 q-16 2 -36.5 12.5t-30.5 20.5q-8 8 -29 33l-53 69q-90 -70 -205 -114q-104 -41 -230 -41q-90 0 -170 26q-76 25 -126 74q-51 47 -80 119q-29 69 -29 153zM293 389q0 -98 53 -156q51 -55 152 -55q78 0 141 29q72 33 127 82l-303 399q-90 -57 -131 -135q-39 -76 -39 -164z" />
<glyph unicode="'" horiz-adv-x="450" d="M203 1024v160l37 295h211l-37 -295l-41 -160q-12 -45 -31 -66q-23 -25 -63 -24q-37 0 -56 24q-18 23 -20 66z" />
<glyph unicode="(" horiz-adv-x="565" d="M96 426q0 152 19 295q16 135 65 287q51 162 119 290q77 147 190 308l101 -66q8 -6 20 -18q8 -8 8 -27q0 -6 -4 -22q-2 -8 -14 -29q-66 -109 -125 -234q-51 -109 -90 -237q-41 -139 -57 -252q-18 -131 -19 -279q0 -68 6 -147q8 -106 17 -160q16 -100 28 -153 q20 -82 43 -142q6 -18 7 -35q0 -27 -11 -36q-14 -14 -30 -23l-115 -65q-39 76 -72 180q-31 95 -49 190q-16 84 -26.5 190.5t-10.5 184.5z" />
<glyph unicode=")" horiz-adv-x="565" d="M-18 -211q0 6 4 23q2 8 14 28q57 94 123 234q57 121 92 237q37 123 55 254q20 147 21 277q0 70 -6 149q-8 102 -17 158q-12 86 -30 156q-23 92 -41 139q-8 25 -9 35q0 25 13 37q20 20 28 24l117 66q43 -90 72 -183q31 -95 49 -190q20 -106 28.5 -190.5t8.5 -182.5 q0 -152 -18.5 -297t-63.5 -286.5t-123 -290.5q-78 -152 -188 -305l-103 65q-8 6 -18 16q-8 9 -8 27z" />
<glyph unicode="*" horiz-adv-x="753" d="M135 1081l158 95q23 14 39 20q12 4 37 8q-37 6 -70 29l-135 98l69 99l136 -99l28 -20l11 -9q10 -9 14 -16q-4 12 -4 21q0 2 -1 9t-1 11v16q0 4 1 8.5t1 8.5l24 190h115l-22 -188q-6 -35 -7 -39q-8 -25 -14 -35q10 10 27 21q4 2 14 8t14 10l166 103l45 -101l-157 -96 q-39 -23 -76 -29q20 -4 35 -8q12 -4 32 -20l136 -95l-70 -98l-135 94q-14 12 -29 23q-12 10 -22 22q6 -22 6 -43q0 -2 -1 -7t-1 -7t-1 -7t-1 -7l-25 -191h-115l25 189q4 37 6 38q10 31 12 35q-14 -12 -28 -22q-16 -10 -33 -23l-158 -94z" />
<glyph unicode="+" d="M106 598l23 180h399l52 422h198l-53 -422h401l-22 -180h-399l-54 -426h-198l51 426h-398z" />
<glyph unicode="," horiz-adv-x="460" d="M41 156q0 33 10 53q14 29 31 45q14 14 47 29q27 12 59.5 12t67.5 -14q29 -12 49.5 -39t28.5 -56q10 -35 10 -65q0 -45 -16 -105q-12 -45 -43 -106q-25 -49 -72 -107q-45 -53 -96 -94l-43 41q-20 16 -21 37q0 16 19 35l18 21.5l21 23.5q27 31 45 59.5t28 77.5 q-37 0 -57 10q-29 14 -45 33q-25 29 -31 47q-10 31 -10 62z" />
<glyph unicode="-" horiz-adv-x="679" d="M96 516l25 205h493l-26 -205h-492z" />
<glyph unicode="." horiz-adv-x="460" d="M35 139q0 33 12 61.5t32.5 49t49.5 33.5q27 12 59 12q34 0 62 -12q29 -12 49 -33t32.5 -49.5t12.5 -61.5q0 -34 -12 -61q-12 -29 -33 -49q-16 -16 -49 -31q-28 -12 -62 -12q-33 0 -59 12q-33 14 -49 31q-20 20 -33 49q-12 27 -12 61z" />
<glyph unicode="/" horiz-adv-x="741" d="M-90 -98l721 1503q23 45 55 63q39 23 80 23h102l-712 -1499q-18 -41 -64 -68q-37 -23 -76 -22h-106z" />
<glyph unicode="0" d="M72 586q0 221 51 401q49 170 135 284.5t205 170.5q113 53 250 53q101 0 184 -37q78 -35 143 -112q55 -68 93 -189q35 -117 34 -264q0 -221 -51 -401q-47 -166 -137 -285q-84 -111 -205 -168q-117 -55 -250 -55q-98 0 -182 36q-76 33 -143 115q-59 72 -95 189 q-32 110 -32 262zM328 592q0 -117 18.5 -192.5t50.5 -125.5q31 -46 74 -67q41 -20 86 -21q74 0 139 43q61 41 113 131q47 84 76 218q27 127 26 311q0 115 -18 192q-16 70 -51 125q-31 47 -76 68q-47 20 -86 20q-72 0 -139 -45q-59 -39 -111 -129q-47 -82 -76 -219 q-26 -127 -26 -309z" />
<glyph unicode="1" d="M217 0l21 184h303l110 903l21 87l-250 -191q-16 -14 -29 -16q-16 -4 -24 -4q-20 0 -37 10t-21 18l-63 107l495 385h203l-162 -1299h271l-23 -184h-815z" />
<glyph unicode="2" d="M29 0l8 82q2 16 16 49q10 25 41 51l508 453q61 53 127 123q45 49 90 114q33 49 53 111q16 49 17 119q0 90 -53.5 139t-143.5 49q-49 0 -88 -12q-37 -10 -72 -37q-37 -27 -59 -57q-31 -41 -41 -70q-18 -41 -39 -55q-27 -16 -57 -17q-20 0 -33 2l-127 25q27 98 82 184 q51 78 127 136q70 51 160 79q86 27 186 27q102 0 170 -25q74 -27 129 -75q49 -43 82 -117q31 -68 31 -152q0 -88 -29 -167.5t-78 -147.5q-43 -59 -114 -131l-140 -133l-381 -348q68 16 97 20q66 8 88 8h395q35 0 55.5 -18.5t20.5 -52.5v-4l-1 -7q-1 -6 -1 -12t-3 -21.5 t-3 -25.5q-2 -10 -4.5 -31.5l-6.5 -54.5h-1009z" />
<glyph unicode="3" d="M78 373l115 45q31 12 57 12q25 0 45 -10q18 -9 24 -31q12 -43 39 -88q25 -43 52 -63q31 -25 69 -37q41 -12 90 -13q70 0 125 25q53 25 92 66q43 47 60 92q18 51 18 108q0 39 -12 76t-49 61q-35 23 -98 39q-66 16 -160 17l22 172q94 0 162 18q70 18 111 51t59.5 82 t18.5 111q0 92 -52 137q-53 47 -143 47q-94 0 -162 -49q-63 -47 -98 -127q-16 -41 -41 -55q-27 -16 -55 -17q-20 0 -33 2l-125 25q27 98 82 184q53 82 125 136q70 51 159 79q86 27 187 27q94 0 168 -25q70 -23 127 -73q49 -43 77.5 -106.5t28.5 -135.5q0 -76 -20 -143 q-20 -66 -53 -105q-35 -41 -91 -73q-47 -27 -118 -48q119 -41 172 -116q57 -80 57 -187q0 -119 -47 -213q-45 -92 -125 -155q-80 -66 -180 -99q-98 -33 -213 -32q-109 0 -183 22q-84 27 -135 72q-55 49 -92 123q-41 82 -57 172z" />
<glyph unicode="4" d="M31 541l817 942h237l-110 -930h184l-20 -139q-4 -23 -17 -35q-14 -14 -39 -14h-133l-45 -365h-221l45 365h-614q-23 0 -49 16q-20 12 -25 37zM299 553h455l61 504q14 88 25 131z" />
<glyph unicode="5" d="M41 156l86 104q16 18 33 25q18 6 33 6q25 0 51 -17l57 -34q35 -23 76 -35q49 -16 112 -17q82 0 142 27q57 27 102 74q41 43 64 108q23 63 22 135q0 102 -63.5 164t-194.5 62q-53 0 -102 -8q-45 -8 -119 -29l-145 45l211 715h724l-12 -105q-6 -49 -43 -84 q-35 -33 -114 -32h-414l-96 -322q106 20 182 20q111 0 190 -30q82 -31 135 -82q49 -47 80 -125q27 -68 27 -156q0 -90 -21 -164q-22 -77 -61 -141q-35 -57 -98 -117q-47 -45 -123 -86q-68 -37 -147.5 -55t-163.5 -18q-59 0 -132 14q-55 10 -110 37q-49 23 -94 55 q-29 21 -74 66z" />
<glyph unicode="6" d="M86 430q0 72 14 129q18 74 45 127q39 78 72 127q37 55 102 131l416 477q18 23 58 41q33 16 79 17h218l-504 -539l-62 -68q46 25 99 37t112 13q77 0 148 -25q74 -27 125 -74q55 -51 84 -121q31 -74 30 -165q0 -109 -45 -215q-43 -102 -123 -177q-86 -80 -184 -118 q-108 -43 -233 -43q-111 0 -191 32q-83 34 -141 93q-57 57 -88 141q-31 82 -31 180zM317 422q0 -57 14.5 -98t47.5 -74q31 -31 74 -49.5t104 -18.5q66 0 125 24.5t100 65.5q47 47 70 101q25 57 25 127q0 55 -19 98q-20 47 -49 76q-31 31 -78 47q-49 16 -100 16 q-74 0 -127 -22.5t-98 -67.5q-41 -41 -66 -100q-23 -53 -23 -125z" />
<glyph unicode="7" d="M156 0l718 1143q29 45 43.5 63.5t49.5 53.5h-717q-20 0 -34.5 14t-14.5 37l20 170h1020l-10 -97q-2 -33 -12 -63q-10 -33 -21 -49l-741 -1215q-14 -23 -41 -41q-25 -16 -56 -16h-204z" />
<glyph unicode="8" d="M66 365q0 154 79 258q80 102 240 149q-88 39 -137 113q-45 70 -45 168t39 176q41 84 106 139q72 61 164 94t205 33q98 0 172 -27q78 -29 131 -75q49 -43 82 -113q31 -63 31 -139q0 -135 -66 -228q-68 -94 -195 -143q117 -41 172 -119q55 -80 56 -188q0 -111 -43 -199 t-119 -149q-84 -68 -180 -99q-100 -33 -228 -32q-109 0 -190 26q-84 27 -147 78q-59 47 -95 121q-32 68 -32 156zM322 385q0 -49 14 -84q16 -41 45 -65q37 -33 72 -46q41 -14 100 -14q72 0 125 21q57 23 92 57q39 39 57 90q20 57 21 115q0 49 -17 92q-14 35 -47 65 q-29 27 -73 39q-51 14 -97 15q-66 0 -121 -18.5t-92 -55.5q-39 -39 -59 -88t-20 -123zM438 1057q0 -25 13 -74q8 -35 32 -61q27 -31 62 -45q39 -16 92 -17q76 0 125 25q43 20 78 63q27 33 41 84q12 45 12 90q0 41 -12 74q-12 35 -35 57q-27 27 -62 41q-39 16 -90 17 q-66 0 -112 -21q-45 -20 -78 -55q-35 -39 -49 -80q-17 -49 -17 -98z" />
<glyph unicode="9" d="M195 963q0 109 43 206q43 96 118 170q74 72 181 115q100 41 223 41q102 0 182 -30.5t137 -88.5q55 -55 86 -133q29 -72 29 -170q0 -76 -16 -147q-16 -70 -45 -131q-33 -70 -72 -125q-41 -59 -96 -127l-402 -486q-23 -27 -55 -41q-37 -16 -78 -16h-223l530 575l39 43 l19.5 24.5t15.5 21.5q-59 -37 -119 -54q-57 -16 -135 -16t-137 22q-72 27 -117 70q-43 41 -78 117q-30 68 -30 160zM442 995q0 -104 58 -161q55 -55 164 -56q72 0 124 21q51 20 95 63q37 37 59 92q20 49 21 115q0 55 -17 94q-18 43 -47 72t-74 45t-92 16q-63 0 -119 -22 q-53 -23 -90 -62q-41 -45 -61 -96q-21 -53 -21 -121z" />
<glyph unicode=":" horiz-adv-x="460" d="M35 139q0 33 12 61.5t32.5 49t49.5 33.5q27 12 59 12q34 0 62 -12q29 -12 49 -33t32.5 -49.5t12.5 -61.5q0 -34 -12 -61q-12 -29 -33 -49q-16 -16 -49 -31q-28 -12 -62 -12q-33 0 -59 12q-33 14 -49 31q-20 20 -33 49q-12 27 -12 61zM135 868.5q0 32.5 12.5 61t33 49 t48.5 33.5q28 12 62 12q33 0 59 -12q29 -12 49 -33q23 -23 35 -49q12 -29 12 -61.5t-12 -59.5t-35 -49q-20 -20 -49 -33q-23 -10 -59 -10q-39 0 -62 10q-29 12 -49 32.5t-33 49.5q-12 27 -12 59.5z" />
<glyph unicode=";" horiz-adv-x="460" d="M37 156q0 33 10 53q14 29 30.5 45t45.5 29q28 12 61 12t68 -14q27 -10 47 -39q20 -27 29 -56q10 -35 10 -65q0 -53 -14 -105q-10 -37 -45 -106q-29 -55 -70 -107q-41 -49 -98 -94l-43 41q-18 15 -19 37q0 18 17 35q8 10 18 20.5t22 24.5l44 59q20 33 30 78q-39 0 -59 10 q-31 14 -45 33q-25 29 -31 47q-8 25 -8 62zM137 868.5q0 32.5 12.5 61t33 49t48.5 33.5q27 12 60 12q34 0 61 -12q29 -12 49.5 -33t32.5 -49.5t12 -61t-12 -59.5q-12 -29 -32.5 -49.5t-49.5 -32.5q-23 -10 -61 -10q-37 0 -60 10q-29 12 -49 32.5t-32 49.5q-13 27 -13 59.5z " />
<glyph unicode="&#x3c;" horiz-adv-x="1091" d="M152 639l12 102l862 422l-22 -180q-2 -20 -15 -37q-10 -14 -39 -28l-393 -191q-16 -8 -53 -20.5t-58 -16.5q23 -6 54 -16q33 -12 47 -21l350 -190q14 -8 29 -27q8 -10 8 -30q-2 -2 -2 -5q0 -12 -2 -24q0 -4 -3 -22.5t-5 -32.5l-13 -107z" />
<glyph unicode="=" d="M129 418l23 182h905l-25 -182h-903zM174 776l23 182h901l-21 -182h-903z" />
<glyph unicode="&#x3e;" horiz-adv-x="1091" d="M115 217l24 180q4 23 12.5 37.5t38.5 28.5l396 190q16 8 53 20.5t57 16.5q-23 6 -53 17q-39 14 -49 20l-348 191q-14 8 -29 26q-8 10 -8 31v4l4 25q0 4 2 22t4 33q2 10 4 26.5l5 40l5 39.5l758 -424l-12 -102z" />
<glyph unicode="?" horiz-adv-x="798" d="M139 1346q39 33 78 57q51 33 88 49q47 20 103 33q47 10 112 10q86 0 144 -22q59 -25 102 -64q47 -43 65 -92q20 -53 20.5 -116.5t-11.5 -113.5q-10 -43 -37 -88q-20 -37 -51 -69q-18 -20 -60 -53l-63 -48q-20 -14 -58 -47q-29 -25 -47 -49q-22 -28 -30 -61l-41 -152h-168 v168q0 49 24 90q23 35 64 74q35 33 82 66q57 41 84 65q35 33 63 78q25 41 25 94q0 68 -37 105q-39 39 -115 38q-53 0 -90 -12q-25 -8 -66 -31q-25 -14 -47 -28.5t-34.5 -14.5t-28.5 9q-10 6 -19 24zM188 139q0 39 11 62q12 29 32.5 49t49.5 33q28 12 61 12q34 0 61 -12 q29 -12 49.5 -33t33 -49.5t12.5 -61.5q0 -34 -13 -61q-12 -29 -32 -49q-16 -16 -50 -31q-28 -12 -61 -12q-34 0 -61 12q-33 14 -50 31q-20 20 -32 49q-11 22 -11 61z" />
<glyph unicode="@" horiz-adv-x="1525" d="M61 475q0 119 33 246q31 121 86 225q53 102 131 189q72 82 172 147q88 59 201 94q111 35 223 35q125 0 232 -43q117 -47 190 -121q84 -84 129 -194q47 -117 47 -254q0 -129 -37 -240q-37 -113 -98 -194.5t-145 -129t-181 -47.5q-61 0 -110 33q-45 31 -57 105 q-66 -74 -132 -105q-72 -33 -139 -33q-49 0 -90 20.5t-61 49.5q-27 37 -39 78q-12 43 -13 96q0 57 17 127q12 55 49 127q29 57 80 115q47 53 110 94q57 37 140 63q78 25 168 25q29 0 69 -4q37 -4 58 -8q41 -8 49 -13q25 -8 47 -20l-137 -379q-18 -46 -25 -80q-6 -33 -6 -59 q0 -45 22 -64q18 -16 54 -16q45 0 90 35q43 33 74 96q35 68 51 145q18 84 18 183q0 111 -30.5 196.5t-88.5 143.5q-53 53 -141 86q-84 31 -182 30q-94 0 -174 -26q-90 -31 -156 -76q-72 -49 -131 -119q-55 -66 -100 -153q-37 -76 -66 -187q-23 -90 -22 -211q0 -133 39 -245 q35 -104 106.5 -178t167.5 -111q98 -37 215 -37q80 0 135 8q53 8 115 23q52 12 92 30q51 23 70 35q14 8 28 12q8 2 21 3q20 0 33 -13q8 -10 16 -30l20 -70q-104 -68 -243 -113q-135 -43 -305 -43q-157 0 -283 49q-123 47 -217 146q-88 92 -139 227q-50 131 -50 299zM594 459 q0 -53 20.5 -82t61.5 -29q27 0 49 8q25 10 47 29q25 23 47 59q25 41 43 91l105 290q-29 6 -58 6q-59 0 -118 -32q-61 -33 -101 -82q-45 -55 -69 -121q-27 -74 -27 -137z" />
<glyph unicode="A" horiz-adv-x="1312" d="M-74 0l717 1481h270l353 -1481h-205q-33 0 -55 16q-20 14 -27 45l-61 308h-551l-138 -308q-12 -25 -36.5 -43t-57.5 -18h-209zM451 557h430l-101 508q-4 12 -9 38.5t-7 39.5q-8 33 -14 90q-6 -18 -39 -94q-8 -16 -20.5 -44t-14.5 -32z" />
<glyph unicode="B" horiz-adv-x="1228" d="M72 0l182 1481h475q125 0 211 -25q90 -25 143 -67q53 -41 82 -107q27 -59 27 -139q0 -70 -16 -121q-20 -66 -54 -109q-35 -45 -90 -86q-57 -41 -133 -65q123 -31 186 -103q61 -70 62 -180q0 -104 -37 -190q-35 -84 -111 -152q-70 -63 -174 -100t-231 -37h-522zM362 207 h252q71 0 123 18q49 16 84 56q34 37 49 86q14 45 15 108q0 82 -49.5 129t-167.5 47h-250zM438 836h197q137 0 213 65q74 65 74 197q0 92 -53.5 135t-163.5 43h-211z" />
<glyph unicode="C" horiz-adv-x="1234" d="M76 627q0 135 26 243q27 113 80 211q49 90 123 172q68 72 158 131q88 57 188 84q104 29 211 29q84 0 148 -14q72 -16 120 -41q53 -27 99 -66q47 -41 78 -82l-95 -110q-10 -12 -22 -23q-14 -10 -35 -10q-18 0 -43 20l-51 39t-82 41q-49 18 -131 19q-104 0 -197 -43 q-90 -41 -159 -125q-68 -80 -105 -195q-39 -121 -39 -256q0 -96 27 -186q25 -82 71 -139q46 -55 111 -86q66 -31 137 -31q57 0 109 10q49 10 82 25q35 16 57 32q8 6 23.5 15.5t21.5 15.5q31 25 33 27q16 10 28.5 10t20.5 -6q6 -4 12 -10l95 -115q-94 -111 -228 -170 q-131 -59 -299 -59q-137 0 -243.5 49t-180 135t-110.5 203q-39 123 -39 256z" />
<glyph unicode="D" horiz-adv-x="1406" d="M72 0l182 1481h522q145 0 254 -47q113 -49 193 -136q78 -84 120.5 -200.5t42.5 -257.5q0 -184 -59 -340q-55 -147 -166 -264q-106 -113 -252 -175q-143 -61 -315 -61h-522zM365 213h253q117 0 205 41t156 125q63 80 100 194q35 111 35 261q0 100 -24 180q-25 82 -72 137 q-49 59 -113 88q-68 31 -155 31h-254z" />
<glyph unicode="E" horiz-adv-x="1075" d="M72 0l182 1481h864l-28 -211h-594l-54 -422h469l-26 -205h-467l-53 -430h598l-27 -213h-864z" />
<glyph unicode="F" horiz-adv-x="1056" d="M72 0l182 1481h864l-28 -211h-594l-58 -451h504l-29 -213h-499l-74 -606h-268z" />
<glyph unicode="G" horiz-adv-x="1357" d="M76 639q0 131 26 238q27 104 80 208q45 88 121 170q68 74 160 131q84 53 192 82q104 29 213 29q86 0 164 -16q80 -16 135 -43q59 -29 107 -66q39 -31 82 -78l-86 -110q-27 -35 -66 -35q-25 0 -45 14l-65 41q-41 25 -66 35q-27 10 -80 23q-39 8 -98 8q-106 0 -203 -45 q-90 -41 -160 -125q-63 -74 -102 -197q-37 -113 -37 -254q0 -111 27 -190q29 -88 76 -143.5t118 -88.5q68 -31 156 -30q86 0 145 14q51 12 121 45l37 283h-164q-25 0 -37 12t-12 31l16 155h461l-73 -594q-109 -78 -244 -120q-125 -39 -295 -39q-137 0 -248 49 q-106 47 -190 137q-80 86 -123 207q-43 119 -43 262z" />
<glyph unicode="H" horiz-adv-x="1425" d="M72 0l182 1481h266l-78 -641h623l80 641h268l-184 -1481h-266l77 651h-622l-78 -651h-268z" />
<glyph unicode="I" horiz-adv-x="593" d="M102 0l181 1481h266l-180 -1481h-267z" />
<glyph unicode="J" horiz-adv-x="821" d="M-29 12l21 156q2 20 14 34.5t39 14.5q14 0 55 -8q31 -6 80 -6q43 0 86 16q41 16 72 53q33 39 53 95q22 58 31 141l119 973h266l-119 -969q-16 -131 -53 -221q-40 -98 -104.5 -166t-153.5 -105q-90 -37 -199 -36q-55 0 -104 6q-46 6 -103 22z" />
<glyph unicode="K" horiz-adv-x="1320" d="M78 0l182 1483h266l-77 -627h57q41 0 61 10q27 12 45 35l428 522q27 33 57.5 45.5t69.5 12.5h228l-525 -621q-25 -27 -45 -45q-27 -23 -47 -33q35 -14 53 -32q20 -20 41 -58l375 -692h-233q-18 0 -39 4q-14 2 -29 10q-14 6 -20 17q-4 6 -13 22l-307 551q-14 27 -37 39 q-20 12 -65 12h-80l-80 -655h-266z" />
<glyph unicode="L" horiz-adv-x="974" d="M72 0l182 1481h266l-155 -1260h536l-24 -221h-805z" />
<glyph unicode="M" horiz-adv-x="1755" d="M72 0l182 1481h201q6 0 15 -1t13 -1q12 0 25 -4q10 -4 16 -13q12 -16 15 -24l305 -846q12 -37 16 -55l17 -56l24 56q4 8 16.5 26.5t16.5 28.5l512 846q6 10 20 24q10 10 21 13q16 4 24 4q4 0 13.5 1t15.5 1h203l-182 -1481h-234l119 965q4 41 8 59q2 8 7 29.5t7 33.5 l-510 -845q-18 -28 -43 -43q-23 -14 -55 -15h-37q-33 0 -55.5 14.5t-32.5 43.5l-305 843q0 -10 -1 -30.5t-1 -30.5q0 -6 -6 -55l-115 -969h-235z" />
<glyph unicode="N" horiz-adv-x="1425" d="M72 0l182 1481h139q6 0 15.5 -1t13.5 -1q12 0 20 -6q14 -10 16.5 -12.5t7.5 -9.5l9 -13l578 -1012q0 10 1 29.5t3 29.5q0 8 1 25.5t3 26.5l117 944h235l-184 -1481h-135q-29 0 -54 10q-23 10 -36 35l-574 1012l-4 -47q0 -8 -1 -21.5t-3 -21.5l-115 -967h-235z" />
<glyph unicode="O" horiz-adv-x="1499" d="M76 639q0 129 26 235q27 109 78 207q45 88 123 172q68 74 160 131q84 51 192 84q98 29 217 29q135 0 254 -51q113 -49 193 -137q74 -82 119 -209q43 -121 43 -260q0 -127 -27 -234q-27 -109 -78 -207q-45 -88 -123 -172q-68 -74 -159 -131q-84 -51 -193 -84 q-98 -29 -217 -28q-139 0 -254 49q-106 47 -190 139q-76 86 -121 209q-43 119 -43 258zM348 647q0 -101 25 -184q23 -78 71 -139q45 -55 115 -88q68 -31 156 -31q113 0 203 45q92 47 155 127q63 82 101 196q35 111 34 261q0 100 -24 182q-25 80 -74 139q-51 61 -115 90 q-72 33 -155 33q-111 0 -201 -45q-92 -47 -156 -127q-61 -80 -100 -201q-35 -111 -35 -258z" />
<glyph unicode="P" horiz-adv-x="1181" d="M78 0l182 1481h451q125 0 217 -31q94 -31 149 -84q58 -55 86 -129q29 -76 29 -164q0 -113 -39 -219q-35 -96 -113 -174q-70 -70 -186 -115q-104 -41 -260 -41h-186l-64 -524h-266zM434 731h184q82 0 136 23q59 25 96 67.5t55 100.5t19 129q0 51 -14.5 92t-45.5 71 q-29 29 -74 45.5t-106 16.5h-184z" />
<glyph unicode="Q" horiz-adv-x="1499" d="M76 639q0 129 26 235q27 109 78 207q45 88 123 172q68 74 160 131q84 51 192 84q98 29 217 29q135 0 254 -51q113 -49 193 -137q74 -82 119 -209q43 -121 43 -260q0 -119 -24.5 -225.5t-72.5 -200.5q-43 -88 -114 -168q-70 -80 -148 -131l295 -406h-217q-47 0 -84 12 q-39 12 -63 50l-168 237q-43 -12 -99 -18q-49 -6 -102 -6q-139 0 -254 49q-106 47 -190 139q-76 86 -121 209q-43 119 -43 258zM348 647q0 -101 25 -184q23 -78 71 -139q45 -55 115 -88q68 -31 156 -31q113 0 203 45q92 47 155 127q63 82 101 196q35 111 34 261 q0 100 -24 182q-25 80 -74 139q-51 61 -115 90q-72 33 -155 33q-111 0 -201 -45q-92 -47 -156 -127q-61 -80 -100 -201q-35 -111 -35 -258z" />
<glyph unicode="R" horiz-adv-x="1236" d="M78 0l182 1481h420q133 0 221 -27q90 -27 148 -76t86 -116q29 -70 28 -148q0 -88 -24 -162q-27 -80 -70 -137q-45 -59 -111 -106q-72 -51 -147 -74q33 -20 43 -33q20 -25 35 -49l262 -553h-238q-29 0 -57 14q-18 8 -33 39l-217 479q-12 27 -30.5 39.5t-55.5 12.5h-106 l-70 -584h-266zM438 774h154q84 0 137 23q61 27 96 63q37 41 56 94q18 55 18 117q0 94 -59 150q-57 55 -185 55h-155z" />
<glyph unicode="S" horiz-adv-x="1011" d="M-10 178l94 127q10 14 29 23q20 10 34 10q16 0 33 -10q18 -12 35 -25l41 -33q14 -12 51 -32q29 -16 64 -25q49 -12 84 -12q115 0 180 65.5t65 182.5q0 51 -24 83q-27 37 -62 56q-37 18 -88 39q-27 8 -53.5 18t-46.5 19q-55 20 -102 43q-41 20 -86 65q-39 39 -64 96 q-23 53 -22 142q0 98 34 182q37 90 101 156q63 68 159 108q90 39 211 39q61 0 116.5 -12.5t103.5 -32.5q43 -18 90 -55q37 -29 69 -68l-78 -113q-16 -25 -28 -30q-14 -8 -37 -8q-18 0 -41 16l-51 35q-47 29 -70 37q-43 16 -98 16t-101 -16q-37 -12 -71 -45q-27 -23 -43 -68 q-16 -43 -17 -84q0 -47 25 -78q25 -33 63 -55q33 -20 89 -41l102 -41q84 -35 102 -45q55 -31 90 -65.5t62 -94.5q25 -55 24 -133q0 -109 -36 -205q-35 -92 -109 -168q-66 -70 -170 -114q-98 -43 -225 -43q-55 0 -127 14q-53 10 -117 39q-57 25 -102 61q-51 41 -82 80z" />
<glyph unicode="T" horiz-adv-x="1122" d="M115 1262l28 219h1078l-29 -219h-406l-155 -1262h-262l153 1262h-407z" />
<glyph unicode="U" horiz-adv-x="1370" d="M123 494q0 61 4 96l109 891h266l-109 -889q-4 -25 -4 -39v-35q0 -76 17 -125q23 -66 49 -98q35 -41 82 -61.5t114 -20.5q72 0 131 27q55 25 105 77q41 43 74 119q31 68 38 154l111 891h266l-110 -891q-14 -125 -70 -242q-53 -115 -135 -192q-84 -82 -195 -127 q-109 -45 -243 -45q-121 0 -213 36q-90 37 -158 107q-61 63 -96 160q-33 90 -33 207z" />
<glyph unicode="V" horiz-adv-x="1347" d="M123 1481h213q39 0 57.5 -16.5t24.5 -43.5l196 -923q4 -16 10.5 -48t10.5 -49q4 -18 9 -54l7 -50q18 53 41 106q14 35 41 95l422 923q10 23 34.5 41.5t59.5 18.5h215l-731 -1481h-241z" />
<glyph unicode="W" horiz-adv-x="1978" d="M131 1481h209q37 0 55 -17q25 -20 27 -43l129 -909q6 -33 6 -70q0 -25 4 -82q39 115 53 152l369 909q8 20 37 41q25 18 57 19h62q39 0 57 -17q20 -18 27 -43l147 -909q2 -12 5 -34.5t5 -35.5q0 -2 6 -77q4 16 10.5 36.5l12.5 40.5q16 49 25 70l350 909q8 23 37 41 q27 18 59 19h209l-604 -1481h-240l-168 1026q-2 10 -3 21.5t-3 21.5l-6 49q-4 -8 -8 -24.5t-8 -24.5q-16 -41 -17 -43l-420 -1026h-239z" />
<glyph unicode="X" horiz-adv-x="1290" d="M-74 0l570 791l-332 690h242q20 0 36 -8q10 -4 21 -27l227 -510q9 22 25 43l313 465q25 37 62 37h278l-504 -678l371 -803h-238q-27 0 -41 14.5t-22 30.5l-258 594q-2 -4 -5 -8t-5 -8.5t-5.5 -8.5t-5.5 -8l-381 -561q-20 -27 -38 -35q-25 -10 -46 -10h-264z" />
<glyph unicode="Y" horiz-adv-x="1241" d="M111 1481h237q37 0 53 -17q20 -23 29 -43l193 -512q10 -25 22 -73q6 -25 14 -70q16 35 35 70q27 51 43 73l320 512q16 25 37 41q25 18 57 19h219l-608 -903l-70 -578h-266l70 578z" />
<glyph unicode="Z" horiz-adv-x="1159" d="M-8 0l12 82q4 20 8 33q2 6 21 28l819 1127h-657l26 211h1012l-12 -84q-4 -27 -9 -33l-20 -29l-819 -1122h688l-29 -213h-1040z" />
<glyph unicode="[" horiz-adv-x="565" d="M4 -311l234 1892h391l-11 -94q-4 -27 -24 -45q-18 -16 -49 -17h-123l-197 -1581h127q25 0 41.5 -12t16.5 -37l-13 -106h-393z" />
<glyph unicode="\" horiz-adv-x="739" d="M106 1491h103q39 0 74 -25q33 -23 41 -61l350 -1503h-103q-43 0 -73 22q-33 25 -45 68z" />
<glyph unicode="]" horiz-adv-x="565" d="M-33 -311l13 94q2 20 24 43q18 18 47 18h125l197 1581h-127q-27 0 -41 15q-16 16 -17 39l13 102h393l-234 -1892h-393z" />
<glyph unicode="^" d="M180 795l381 686h164l383 -686h-186q-20 0 -37 12q-15 12 -25 31l-164 297q-10 18 -26 53q-10 20 -23 53q-12 -37 -20 -53q-4 -6 -11.5 -24.5t-13.5 -28.5l-160 -297q-9 -18 -24.5 -30.5t-42.5 -12.5h-195z" />
<glyph unicode="_" horiz-adv-x="743" d="M-98 -299l18 158h744l-21 -158h-741z" />
<glyph unicode="`" horiz-adv-x="604" d="M37 1495h229q39 0 58 -12q14 -10 28 -41l103 -248h-140q-27 0 -45 6q-14 4 -30 29z" />
<glyph unicode="a" horiz-adv-x="1062" d="M41 360q0 94 25 183q27 94 65 168q39 72 106.5 143.5t137.5 112.5q88 53 164 73q88 25 186 25q80 0 143 -8q72 -10 140 -37l-127 -1020h-133q-45 0 -64 20q-20 25 -20 56l8 143q-76 -115 -156 -172q-88 -63 -192 -63q-58 0 -111 24q-55 27 -90 70q-39 49 -60 117 q-22 73 -22 165zM295 406q0 -113 33 -164q33 -49 96 -49q41 0 82 28q37 25 76 78q35 45 67.5 119t52.5 147l39 320q-18 2 -49 2q-88 0 -160 -39q-76 -41 -124 -105q-53 -70 -84 -153q-29 -80 -29 -184z" />
<glyph unicode="b" horiz-adv-x="1105" d="M63 0l187 1522h246l-82 -678q74 102 164 164q90 59 192 59q63 0 119 -25q57 -27 92 -71q39 -51 59 -123q20 -70 21 -172q0 -80 -21 -176q-18 -88 -51 -162q-34 -77 -80 -141.5t-104.5 -110.5t-122.5 -74q-68 -29 -133 -28q-80 0 -146 32q-59 29 -104 88l-8 -34 q-10 -37 -29 -54q-20 -16 -61 -16h-138zM340 246q37 -39 78 -53q49 -16 90 -17q68 0 123 43t94 109q40 68 61 153q20 82 21 170q0 111 -35 164t-100 53q-41 0 -86 -28q-39 -25 -82 -78t-76 -119q-35 -68 -59 -147z" />
<glyph unicode="c" horiz-adv-x="894" d="M53 422q0 127 41 246q39 113 115 204q74 88 176 142q100 51 221 51q102 0 176 -37q72 -37 131 -110l-82 -95q-16 -16 -20 -18q-12 -6 -25 -6q-20 0 -32 10q-4 4 -33 22l-47 23q-23 10 -74 10q-59 0 -113 -30q-51 -31 -92 -91q-41 -61 -65 -141q-23 -76 -23 -180 q0 -121 49 -178q53 -63 140 -64q63 0 96 17q41 20 65 36l48 37q18 16 45 17q12 0 24 -6q8 -4 21 -17l65 -78q-49 -53 -100 -96q-43 -35 -96.5 -61.5t-102.5 -34.5q-61 -10 -119 -10q-86 0 -163 32q-76 31 -123 88q-53 63 -76 138q-27 86 -27 180z" />
<glyph unicode="d" horiz-adv-x="1107" d="M45 377q0 78 21 174q18 88 51 162q37 82 80 143q46 65 104 111t123 73q61 27 133 27q66 0 129 -27q53 -23 100 -69l70 551h246l-187 -1522h-133q-47 0 -65 20q-18 22 -19 56l9 153q-74 -111 -170 -178q-94 -68 -201 -67q-63 0 -118.5 24.5t-92.5 73.5q-39 53 -59 121 q-21 70 -21 174zM299 401q0 -111 35 -164t100 -53q43 0 84 27q43 29 84 78q40 49 74 117q31 59 57 145l33 256q-35 39 -80 53q-43 14 -88 14q-68 0 -123 -43t-94 -108q-41 -70 -61.5 -152t-20.5 -170z" />
<glyph unicode="e" horiz-adv-x="972" d="M53 422q0 90 17 162q18 78 53 151q37 76 82 133.5t110.5 102.5t137.5 69q74 25 157.5 25t145.5 -25q66 -27 104 -59q37 -33 62 -84q20 -43 20 -90q0 -68 -29 -129q-29 -59 -100 -105q-74 -46 -197 -79q-117 -33 -317 -52v-14q0 -248 209 -248q51 0 82 8q41 10 59 21 q23 12 47 29q20 16 39 28.5t35 20.5t39 8q12 0 24.5 -6t20.5 -17l64 -77q-53 -55 -107 -95q-57 -43 -106 -65q-66 -29 -115 -39q-61 -12 -131 -12q-90 0 -168 32q-72 31 -127 88q-49 51 -82 138q-29 74 -29 180zM319 602q137 20 205 39q78 23 119 45q47 27 57 51 q12 29 13 62q0 15 -6 30q-6 14 -20.5 28.5t-35.5 23.5q-18 8 -53 8q-55 0 -96 -20.5t-80 -59.5q-37 -37 -62 -90.5t-41 -116.5z" />
<glyph unicode="f" horiz-adv-x="655" d="M61 -254l136 1114l-82 17q-20 2 -37 16q-14 12 -15 37v4l2 4q1 4 1 8t4 33q0 4 3 24.5t5 36.5h139l10 78q14 100 47 164q37 72 93 121q53 47 128.5 75.5t155.5 28.5q61 0 123 -20l-24 -131q-4 -14 -9 -19q-6 -6 -20 -10q-16 -4 -25 -4h-28q-40 0 -74 -12q-41 -14 -62 -35 q-25 -25 -43 -66q-16 -33 -22 -100l-8 -70h233l-22 -180h-226l-100 -817l-51 -193q-14 -49 -45 -75q-33 -29 -84 -29h-103z" />
<glyph unicode="g" horiz-adv-x="997" d="M-70 -100q0 84 45 145t113 96q74 39 156 54q80 14 174 14q55 0 82 -2q23 -2 73 -10q0 4 -2 16t-4 16q-2 10 -2 35q0 63 33 131q-35 -25 -88 -41q-45 -14 -119 -14q-51 0 -112 20q-55 18 -95 58q-43 43 -65 100q-25 61 -25 141q0 74 29 150q25 68 86 131q55 57 139 92 q86 35 193 35q49 0 110 -14q51 -12 97 -41h292l-10 -82q-2 -20 -16 -41q-12 -18 -35 -25l-107 -28q4 -16 9 -41q2 -14 2 -50q0 -43 -11 -83q-9 -37 -24 -68q-25 -49 -33 -62q-16 -25 -33 -57q-15 -31 -24 -61q-10 -35 -10 -70q0 -41 18 -78l37 -73q12 -23 37 -78 q18 -43 18 -99q0 -74 -35 -147q-33 -68 -100 -123q-61 -51 -160 -82q-102 -33 -213 -33q-88 0 -174 21q-74 18 -133 57q-53 37 -84 84q-29 46 -29 107zM170 -70q0 -61 49 -92t152 -31q68 0 104 13q47 16 82 41q29 20 51 61q18 34 19 74v29q0 8 -4 24q-76 12 -103 14 q-61 4 -86 5q-80 0 -121 -11q-53 -12 -82 -30q-33 -18 -47 -43q-14 -23 -14 -54zM324 657q0 -78 36 -120q39 -45 103 -45q47 0 82 22q33 20 57 55q23 33 37 80q12 43 12 88q0 78 -36.5 119t-102.5 41q-45 0 -82 -20q-31 -16 -57 -54q-25 -33 -37 -78q-12 -43 -12 -88z" />
<glyph unicode="h" horiz-adv-x="1114" d="M63 0l187 1522h250l-78 -650q77 98 166 148q86 47 182 47q61 0 108.5 -20.5t82.5 -61.5q31 -37 51 -100q20 -66 20 -135q0 -6 -1 -19.5t-1 -19.5q0 -14 -4 -43l-80 -668h-252l80 668q2 12 2 37q0 4 1 14t1 14q0 68 -24 98q-23 29 -78 29q-41 0 -82 -20q-37 -18 -82 -64 q-37 -39 -72 -96q-31 -53 -57 -129l-68 -551h-252z" />
<glyph unicode="i" horiz-adv-x="530" d="M78 0l127 1051h250l-127 -1051h-250zM203 1356q0 29 14 63q12 31 33 51q23 23 51 35q33 14 57 15q27 0 60 -15q29 -12 51 -35q25 -25 35 -49q12 -31 12 -65t-12 -62q-10 -23 -37 -49q-23 -23 -49 -35q-29 -12 -62 -12q-29 0 -57 12q-27 12 -49.5 35t-34.5 49 q-12 28 -12 62z" />
<glyph unicode="j" horiz-adv-x="522" d="M-160 -348l25 135q6 18 20 27q12 6 49 6q33 0 58 6q27 6 41 24q16 18 24 46q10 33 17 67l131 1088h250l-136 -1088q-10 -68 -32 -127q-23 -55 -70 -106q-43 -47 -106 -72q-66 -27 -144 -27q-47 0 -67 4q-27 5 -60 17zM195 1356q0 29 14 63q12 31 33 51q23 23 51 35 q33 14 57 15q27 0 60 -15q29 -12 51 -35q25 -25 35 -49q12 -31 12 -65t-12 -62q-10 -23 -37 -49q-23 -23 -49 -35q-29 -12 -62 -12q-29 0 -57 12q-27 12 -49.5 35t-34.5 49q-12 28 -12 62z" />
<glyph unicode="k" horiz-adv-x="1046" d="M66 0l186 1522h250l-107 -871h27q20 0 36.5 6.5t33.5 26.5l278 324q12 14 37 30q18 12 49 13h225l-346 -392l-39 -38q-16 -16 -41 -31q25 -20 33 -35l25 -45l260 -510h-219q-25 0 -45 10q-18 8 -31 35l-203 397q-12 27 -26 33q-12 6 -41 6h-35l-58 -481h-249z" />
<glyph unicode="l" horiz-adv-x="514" d="M70 0l184 1522h248l-185 -1522h-247z" />
<glyph unicode="m" horiz-adv-x="1622" d="M55 0l129 1053h127q37 0 62 -21q23 -18 22 -57v-4v-13q0 -4 -1 -13t-1 -23q0 -10 -4 -68q70 104 156 160q84 53 172 53q98 0 153 -63q53 -63 64 -189q74 127 164 191q90 61 196 61q115 0 181 -80q66 -82 65 -229q0 -6 -1 -20.5t-1 -22.5q0 -14 -4 -47l-80 -668h-250 q10 94 20.5 169t16.5 126l23 203q4 43 8 75.5t6 53.5q2 18 5 41.5t3 27.5q2 16 2 35q0 4 1 8t1 6q0 61 -20.5 88t-67.5 27q-41 0 -76 -20q-39 -23 -69 -60q-33 -39 -62 -96q-27 -53 -49 -127l-65 -557h-250l78 668q4 29 4 41q0 6 1 19t1 17q0 57 -21 89q-18 27 -65 26 q-43 0 -78 -20.5t-72 -63.5q-34 -40 -61.5 -98t-48.5 -129l-66 -549h-248z" />
<glyph unicode="n" horiz-adv-x="1105" d="M55 0l125 1053h131q37 0 62 -21q20 -18 20 -61l-6 -137q82 119 178.5 176t200.5 57q57 0 104.5 -20.5t81.5 -61.5q31 -37 52 -100q20 -66 20 -135q0 -6 -1 -19.5t-1 -19.5q0 -14 -4 -43l-80 -668h-252l35 293q6 53 13 105.5t11 95.5q8 80 13 124q2 25 5 42.5t3 27.5 q0 6 1 13.5t2 11.5t1 6v14q0 66 -24.5 96.5t-77.5 30.5q-41 0 -86 -24q-47 -25 -86 -70q-43 -49 -74 -109q-39 -74 -57 -141l-58 -516h-252z" />
<glyph unicode="o" horiz-adv-x="1048" d="M45 426q0 131 45 254q41 113 119 203q74 86 176 135t213 49q92 0 162 -29q74 -31 129 -86q53 -53 84 -137q31 -82 31 -188q0 -129 -46 -252q-43 -117 -118 -205q-74 -86 -176 -135q-106 -51 -213 -51q-88 0 -162 30.5t-127 83.5q-51 51 -84 139.5t-33 188.5zM299 426 q0 -125 43 -186q41 -59 131 -60q66 0 115 35q51 35 88 98q37 61 55.5 141.5t18.5 170.5q0 127 -43 188q-41 59 -132 59q-66 0 -114 -34q-53 -37 -88 -97q-33 -55 -53.5 -143t-20.5 -172z" />
<glyph unicode="p" horiz-adv-x="1089" d="M12 -344l172 1397h127q33 0 60 -17q25 -15 24 -49v-2l-1 -6q-1 -6 -1 -12v-52q0 -14 -4 -96q78 115 170 180q95 68 203 68q63 0 119 -25q57 -27 92 -71q39 -51 59 -123q20 -70 21 -172q0 -80 -21 -176q-18 -88 -51 -162q-34 -77 -80 -141.5t-104.5 -110.5t-122.5 -74 q-68 -29 -133.5 -28.5t-128.5 26.5q-57 25 -101 70l-53 -424h-246zM332 246q33 -37 80 -53q45 -16 88 -17q68 0 123 43t94 109q40 68 61 153q20 82 21 170q0 111 -35 164t-100 53q-41 0 -86 -28q-39 -25 -82 -78q-40 -49 -74 -117q-35 -72 -60 -145z" />
<glyph unicode="q" horiz-adv-x="1062" d="M41 360q0 94 25 183q27 94 65 168q39 72 106.5 143.5t137.5 112.5q88 53 164 73q88 25 186 25q80 0 143 -8q72 -10 140 -37l-170 -1364h-164q-16 0 -37 8q-12 4 -23 19q-10 12 -12 26q-4 20 -4 29v4l1 6q1 6 1 10t1 14.5t3 26.5q2 10 5 36l5 42l5.5 50t9.5 75l24 188 q-70 -98 -149 -151q-82 -55 -180 -55q-58 0 -111 24q-55 27 -90 70q-39 49 -60 117q-22 73 -22 165zM295 406q0 -113 33 -164q33 -49 96 -49q43 0 82 26q37 25 76 78q31 43 65 117q31 68 53 147l41 324q-6 0 -13 1t-11 1h-25q-88 0 -160 -39q-76 -41 -124 -105 q-53 -70 -84 -153q-29 -80 -29 -184z" />
<glyph unicode="r" horiz-adv-x="747" d="M55 0l129 1053h127q35 0 62 -17q23 -14 22 -53v-4l-1 -3q-1 -3 -1 -7v-11v-55q0 -14 -4 -104q68 129 139 192q74 66 160 66q47 0 86 -17l-45 -241q-49 20 -98 20q-92 0 -160 -86q-70 -88 -113 -274l-55 -459h-248z" />
<glyph unicode="s" horiz-adv-x="806" d="M-6 113l61 96q12 18 27 27q16 10 36.5 10t41.5 -15q4 -2 17 -12t24 -16q41 -25 55 -31q34 -12 86 -12q43 0 74 12q41 16 55 29q18 16 33 45q12 25 12 55q0 33 -18 57q-16 23 -47 41q-25 14 -66 29q-37 12 -76 27q-49 20 -73 32q-31 14 -66 48q-27 23 -47 69 q-16 35 -17 98q0 76 25 136q28 68 80 116q55 51 127 82q74 31 172 31t178 -35t131 -86l-65 -94q-12 -16 -22.5 -22.5t-27 -6.5t-36.5 11q-37 20 -41 22q-41 20 -56 25q-27 8 -75 8q-82 0 -123 -35q-45 -39 -45 -92q0 -33 18.5 -53.5t46.5 -36.5q41 -23 66 -31l76 -31 q27 -10 75 -35q33 -16 66 -49q29 -29 47 -69q18 -39 18 -97q0 -76 -30 -143q-31 -66 -88 -121q-53 -51 -136 -82q-80 -31 -178 -30q-45 0 -96 10q-53 10 -88 26q-47 23 -74 41q-32 25 -57 52z" />
<glyph unicode="t" horiz-adv-x="729" d="M90 905v4v13q0 4 4 32q8 53 8 62l160 26l82 287q4 16 23 31q14 12 34 12h136l-41 -332h254l-21 -180h-254l-57 -457l-5 -42l-3 -25q-2 -20 -4 -37q0 -4 -1.5 -11t-1.5 -9v-9q0 -40 19 -61q18 -20 53 -21q27 0 37 5q20 8 29 12l18 12q6 4 18.5 4t16.5 -4q8 -8 12 -16 l53 -123q-53 -45 -122 -70q-68 -25 -140 -24q-111 0 -176 61q-68 63 -69 168v18q0 2 1 12.5t1 16.5t3 23.5t3 25.5q8 72 8 80l59 471h-100q-14 0 -27 12q-10 10 -10 33z" />
<glyph unicode="u" horiz-adv-x="1103" d="M84 299q0 8 1 20.5t1 20.5q0 16 4 45l78 666h254q-10 -94 -20.5 -169t-16.5 -124l-23 -201q-4 -43 -8 -73.5t-6 -51.5q-2 -25 -5 -42t-3 -28q-2 -16 -2 -30q0 -4 -1 -8.5t-1 -6.5q0 -63 26 -96q23 -29 76 -28q41 0 82 20q37 18 82 63q37 37 74 101q31 53 57 129l66 545 h254l-127 -1051h-129q-23 0 -33 4q-20 8 -29 14q-16 12 -20 23q-8 20 -8 35v4l6 129q-80 -113 -174 -168q-98 -57 -197 -57q-55 0 -106 22q-47 20 -80 60q-35 41 -53.5 100t-18.5 133z" />
<glyph unicode="v" horiz-adv-x="1021" d="M74 1051h205q25 0 43 -14.5t20 -32.5l111 -562q12 -66 14 -100q0 -16 4 -49t4 -49l31 98q33 86 39 100l252 562q8 18 28 32q23 14 41 15h199l-516 -1051h-213z" />
<glyph unicode="w" horiz-adv-x="1505" d="M82 1051h190q23 0 43 -15q18 -12 21 -32l61 -562q6 -45 6 -90q0 -57 3 -86q20 57 32 86l35 90l227 564q10 23 29 35t41 12h107q28 0 43 -13q14 -12 18 -34l88 -564l12 -90q8 -57 11 -86q4 14 11 43t11 43q14 47 31 90l205 562q6 20 24 32q20 14 41 15h184l-432 -1051 h-194q-35 0 -41 45l-98 606q-8 51 -11 80q-4 -10 -7 -20.5t-7 -20.5q0 -2 -16 -39l-250 -606q-18 -45 -54 -45h-188z" />
<glyph unicode="x" horiz-adv-x="1034" d="M-53 0l418 569l-246 482h229q25 0 37 -7q10 -6 21 -24l143 -315q2 4 7 13t7 13q6 14 17 27l184 258q6 8 27 24q14 10 28 11h230l-369 -484l270 -567h-229q-23 0 -41 14q-15 12 -25 31l-159 369q-2 -4 -6.5 -10.5t-6.5 -10.5q-4 -8 -12 -20l-233 -328q-4 -6 -29 -31 q-14 -14 -41 -14h-221z" />
<glyph unicode="y" horiz-adv-x="1021" d="M82 1051h211q27 0 41 -15q10 -12 18 -32l131 -545q4 -16 9 -53q4 -33 6 -52l11 26.5l11 27.5l25 51l258 545q8 20 31 34q18 12 38 13h205l-696 -1342q-29 -53 -82 -53h-186l233 424z" />
<glyph unicode="z" horiz-adv-x="901" d="M0 0l14 106q4 25 13 41q14 29 28 46l531 663h-453l23 195h749l-12 -105q-4 -31 -14 -53q-14 -29 -27 -41l-526 -657h460l-20 -195h-766z" />
<glyph unicode="{" horiz-adv-x="565" d="M33 565l16 140q74 0 107 63q29 57 28 195v36q0 6 -1 21.5t-1 24t-1 23.5t-1 22v38q0 106 25 193q25 84 74 143q49 57 124 88q72 29 179 29h49l-13 -108q-4 -16 -8 -22.5t-16 -14.5q-8 -6 -16 -9q-6 -2 -17 -2h-8q-66 0 -107 -49q-37 -47 -47 -139q-6 -53 -6 -100v-95 q0 -16 -1 -44.5t-1 -43.5q0 -2 -6 -88q-2 -39 -16 -80q-12 -37 -37 -67q-29 -37 -53 -53q-29 -20 -70 -31q61 -23 92 -72t31 -117q0 -59 -13 -114q-12 -57 -28 -115q-27 -98 -31 -115q-14 -68 -14 -118q0 -61 28.5 -100.5t83.5 -39.5h9q14 0 30 -10q14 -8 15 -33v-4l-1 -4 q-1 -4 -1 -8q0 -6 -4 -35q0 -4 -3.5 -24.5t-5.5 -36.5h-49q-84 0 -139 20q-61 23 -98 60q-39 39 -58 92q-20 57 -20 118.5t16 126.5q16 61 33 117q8 23 18.5 64l12.5 49q14 51 14 115q0 53 -23 81q-26 33 -71 33z" />
<glyph unicode="|" horiz-adv-x="614" d="M147 -344v1929h197v-1929h-197z" />
<glyph unicode="}" horiz-adv-x="565" d="M-33 -311l13 108q0 10 8 23q6 8 14 14q6 4 18 8q6 2 17 2h8q66 0 107 50q35 43 45 139q8 70 8 100v94v88q0 2 6 88q2 31 18 80q12 37 37 68t53.5 51.5t67.5 32.5q-61 23 -92 72t-31 116q0 49 15 115q12 57 28 115q18 68 29 114q14 68 14 119q0 61 -28.5 100t-83.5 39h-9 q-12 0 -28.5 10.5t-16.5 32.5v5l1 4q1 4 1 8q0 6 4 35q0 4 3.5 24.5t5.5 36.5h49q82 0 141.5 -20.5t98 -59.5t57 -92t18.5 -119q0 -70 -14 -127q-16 -61 -33 -116q-12 -39 -33 -113q-14 -51 -14 -115q0 -53 23 -82q27 -33 73 -32l-16 -140q-74 0 -107 -63q-29 -57 -28 -195 v-37q0 -6 1 -21.5t1 -23.5t1 -23.5t1 -21.5v-39q0 -106 -25 -192q-25 -84 -74 -144q-47 -55 -126 -88q-72 -29 -179 -28h-47z" />
<glyph unicode="~" d="M39 408q0 82 20.5 143t61.5 108q39 45 96 70t131 25q66 0 105 -13q66 -20 94 -32l84 -31q37 -14 69 -14q59 0 91 36q33 39 32 103h203q0 -80 -20 -141q-22 -65 -62 -111q-39 -45 -96 -69.5t-131 -24.5q-59 0 -105 14q-84 27 -94 31l-84 30q-43 16 -69 17q-59 0 -91 -37 q-33 -39 -32 -104h-203z" />
<glyph unicode="&#xa2;" d="M127 451q0 127 39 235q39 106 115 193q72 80 186 131q106 47 246 53l35 164q6 27 26 43q25 20 47 20h90l-49 -237q86 -16 142 -47q66 -37 110 -84l-74 -86q-12 -16 -22 -21q-16 -8 -31 -8q-8 0 -29 8q-6 4 -14 7t-18 9q-6 2 -20.5 9.5l-22.5 11.5q-12 6 -58 18l-145 -700 q61 6 96 20q40 15 68 31l26.5 14.5t22.5 12.5q20 12 41 12q31 0 43 -20l55 -86q-43 -43 -86 -72q-47 -31 -94 -49.5t-102 -30.5q-45 -10 -107 -14l-33 -156q-6 -25 -24 -41q-25 -20 -49 -20h-91l46 221q-80 12 -148 49q-66 35 -115 94q-47 55 -75 139q-27 79 -27 177z M367 463q0 -111 43 -182q41 -68 122 -97l144 693q-84 -10 -137 -41q-63 -37 -97 -86q-41 -61 -57 -127q-18 -74 -18 -160z" />
<glyph unicode="&#xa3;" d="M0 0l20 154q70 14 111 59q39 43 51 127l35 276h-160l21 158h158l30 248q12 102 53 182q43 88 111 152q70 66 164 102.5t213 36.5q90 0 156 -18q63 -18 112 -56q51 -39 80 -84q29 -47 51 -106l-106 -64q-16 -10 -29 -12q-20 -4 -29 -4q-12 0 -32 8q-16 6 -29 25 q-31 41 -35 45q-25 25 -39 33q-27 16 -51 20q-41 8 -72 8q-55 0 -100 -18q-43 -16 -82 -53q-35 -31 -57 -84q-23 -51 -29 -111l-31 -250h459l-18 -158h-459l-25 -210q-10 -74 -32 -123q-25 -51 -68 -95l80 13q40 6 80 6h612l-12 -101q-4 -20 -12 -38q-8 -16 -25 -33 q-15 -15 -37 -25q-25 -10 -45 -10h-983z" />
<glyph unicode="&#xa5;" d="M111 276l16 138h330l10 98h-328l17 135h286l-307 832h205q37 0 53 -17q20 -20 29 -43l168 -510q12 -37 20 -82l13 -73q8 25 28 73q16 37 41 82l293 510q12 25 37 43q23 16 57 17h207l-514 -832h289l-17 -135h-331l-13 -98h330l-16 -138h-330l-33 -276h-245l34 276h-329z " />
<glyph unicode="&#xa9;" horiz-adv-x="1619" d="M82 741q0 98 29 201q29 100 75 180q51 86 119 154q66 66 152 117q84 49 180 77q92 27 201 27q106 0 200 -27q96 -27 182.5 -78t151.5 -116q68 -68 119 -154q47 -80 76 -180q27 -94 26.5 -200.5t-26.5 -200.5q-29 -100 -76 -181q-51 -86 -119 -153q-66 -66 -151.5 -117 t-182.5 -78q-94 -27 -200.5 -26.5t-200.5 26.5q-92 27 -180 78q-86 51 -152 117q-68 68 -119 153q-45 78 -75 181q-29 98 -29 200zM221 741q0 -137 47 -249q49 -115 131 -201q84 -88 195 -135q115 -49 244 -50q82 0 166 23q78 20 149 64q78 45 127 98q61 63 96 127 q39 70 62 151q23 84 22 172q0 84 -22 170q-22 83 -62 154q-39 68 -96 129q-41 45 -127 98q-63 41 -149 64q-92 25 -166 24.5t-166 -24.5q-82 -23 -148 -64q-80 -51 -125 -98q-57 -61 -96 -129q-40 -71 -61 -154q-21 -80 -21 -170zM391 743q0 109 35 191q41 94 100 151 q72 68 150 99q84 33 184 33q114 0 197 -37q76 -35 137 -99l-68 -90q-6 -8 -16 -16t-27 -8q-18 0 -32 8q-4 2 -16.5 11t-20.5 13q-18 10 -56 21q-45 12 -86 12q-53 0 -108 -20q-41 -16 -80 -58q-31 -35 -51 -90q-18 -53 -19 -121q0 -71 19 -122q18 -53 49 -91q29 -35 76 -55 q43 -18 94 -18q57 0 84 8q49 14 55 18q14 8 39 25q14 8 39 16q14 0 21 -4q14 -10 16 -12l84 -90q-57 -74 -146 -111q-90 -39 -204 -39q-101 0 -185 37t-141 101q-63 72 -92 149q-31 86 -31 188z" />
<glyph unicode="&#xad;" horiz-adv-x="679" d="M96 516l25 205h493l-26 -205h-492z" />
<glyph unicode="&#xae;" horiz-adv-x="1619" d="M78 741q0 106 26 201q29 100 76 180q51 86 119 154q63 63 154 117q84 49 180 77q92 27 201 27q106 0 200 -27q96 -27 182.5 -78t151.5 -116q68 -68 119 -154q47 -80 76 -180q27 -94 26.5 -200.5t-26.5 -200.5q-29 -100 -76 -181q-51 -86 -119 -153q-66 -66 -152 -117 t-182 -78q-94 -27 -200 -26q-109 0 -201 26q-96 29 -180 78q-90 53 -154 117q-68 68 -119 153q-45 78 -76 181q-26 91 -26 200zM217 741q0 -137 47 -249q49 -115 131 -201q84 -88 195 -135q115 -49 244 -49.5t243 49.5q114 49 197 135q86 90 133 201q47 113 47 249 q0 90 -20 170q-22 83 -62 154q-35 63 -98 129q-45 47 -125 98q-63 41 -150 64q-92 25 -165.5 24.5t-165.5 -24.5q-82 -23 -148 -64q-80 -51 -125 -98q-57 -61 -96 -129q-40 -71 -61 -154q-21 -80 -21 -170zM500 283v919h327q193 0 283 -67q88 -68 88 -197q0 -90 -47 -159.5 t-147 -100.5q23 -12 40 -33q8 -8 29 -47l187 -315h-211q-47 0 -66 34l-147 269q-12 20 -21 24q-12 6 -41 6h-55v-333h-219zM719 774h92q55 0 86 8q37 10 51 25q20 20 27 45q8 33 8 57q0 23 -8 56q-6 29 -23 41q-20 16 -47 22q-41 8 -78 8h-108v-262z" />
<glyph unicode="&#xb4;" horiz-adv-x="604" d="M262 1194l164 248q20 33 37 41q22 12 61 12h236l-268 -266q-25 -25 -39 -29q-18 -6 -47 -6h-144z" />
<glyph unicode="&#x2000;" horiz-adv-x="841" />
<glyph unicode="&#x2001;" horiz-adv-x="1685" />
<glyph unicode="&#x2002;" horiz-adv-x="841" />
<glyph unicode="&#x2003;" horiz-adv-x="1685" />
<glyph unicode="&#x2004;" horiz-adv-x="561" />
<glyph unicode="&#x2005;" horiz-adv-x="419" />
<glyph unicode="&#x2006;" horiz-adv-x="280" />
<glyph unicode="&#x2007;" horiz-adv-x="280" />
<glyph unicode="&#x2008;" horiz-adv-x="208" />
<glyph unicode="&#x2009;" horiz-adv-x="335" />
<glyph unicode="&#x200a;" horiz-adv-x="92" />
<glyph unicode="&#x2010;" horiz-adv-x="679" d="M96 516l25 205h493l-26 -205h-492z" />
<glyph unicode="&#x2011;" horiz-adv-x="679" d="M96 516l25 205h493l-26 -205h-492z" />
<glyph unicode="&#x2012;" horiz-adv-x="679" d="M96 516l25 205h493l-26 -205h-492z" />
<glyph unicode="&#x2013;" horiz-adv-x="1075" d="M160 524l20 176h766l-22 -176h-764z" />
<glyph unicode="&#x2014;" horiz-adv-x="1591" d="M160 524l20 176h1282l-20 -176h-1282z" />
<glyph unicode="&#x2018;" horiz-adv-x="425" d="M176 1184q0 115 62 219q61 102 176 190l67 -45q14 -8 15 -28q0 -14 -4 -21q-2 -4 -9.5 -12l-11.5 -12q-16 -20 -27 -35q-20 -29 -30.5 -51.5t-20.5 -61.5q-10 -37 -10 -72q0 -31 6 -61q6 -29 23 -66q2 -6 2 -16q0 -18 -11 -29q-12 -12 -30 -20l-156 -57q-41 92 -41 178z " />
<glyph unicode="&#x2019;" horiz-adv-x="425" d="M133 1049q0 12 6 20q2 4 9.5 10t11.5 13q2 4 26 36q20 29 30.5 51.5t21.5 61.5q10 37 10 72q0 31 -6 61q-4 25 -23 64q-2 6 -2 16q0 20 10 31q12 12 31 20l156 58q41 -92 41 -179q0 -115 -62 -219q-61 -102 -176 -190l-70 45q-14 9 -14 29z" />
<glyph unicode="&#x201c;" horiz-adv-x="743" d="M176 1184q0 115 62 219q61 102 176 190l67 -45q14 -8 15 -28q0 -14 -4 -21q-2 -4 -9.5 -12l-11.5 -12q-16 -20 -27 -35q-20 -29 -30.5 -51.5t-20.5 -61.5q-10 -37 -10 -72q0 -31 6 -61q6 -29 23 -66q2 -6 2 -16q0 -18 -11 -29q-12 -12 -30 -20l-156 -57q-41 92 -41 178z M496 1184q0 115 61 219q61 106 174 190l68 -45q16 -10 16 -28q0 -12 -6 -21t-18 -24q-2 -2 -12.5 -14.5t-16.5 -20.5q-16 -23 -29 -51q-14 -33 -22 -62q-10 -37 -11 -72q0 -20 9 -61q8 -37 20 -66q4 -12 4 -16q0 -16 -12 -28.5t-31 -20.5l-153 -57q-41 92 -41 178z" />
<glyph unicode="&#x201d;" horiz-adv-x="743" d="M137 1049q0 12 6 20q2 4 9.5 10t11.5 13q2 4 26 36q20 29 30.5 51.5t21.5 61.5q10 37 10 72q0 31 -6 61q-4 25 -23 64q-2 6 -2 16q0 20 10 31q12 12 31 20l156 58q41 -92 41 -179q0 -115 -62 -219q-61 -102 -176 -190l-69 45q-15 9 -15 29zM455 1049q0 12 6 20q2 4 9 12 q5 7 9 11q23 27 29 36q16 23 29 52q20 45 24 61q8 31 8 72q0 31 -6 61q-4 25 -22 64q-4 12 -4 16q0 18 12 31q12 10 33 20l153 58q41 -92 41 -179q0 -115 -61 -219q-61 -102 -176 -190l-68 45q-16 11 -16 29z" />
<glyph unicode="&#x2022;" d="M166 606q0 98 35 174q39 84 96 142q63 63 141 96q82 35 172 35q94 0 176 -35q78 -33 142 -96q57 -57 96 -142q35 -76 35 -174q0 -94 -35 -170q-39 -84 -96 -141q-59 -59 -142 -94q-88 -37 -176 -37q-84 0 -172 37q-82 35 -141 94q-57 57 -96 141q-35 76 -35 170z" />
<glyph unicode="&#x2026;" horiz-adv-x="1552" d="M35 139q0 33 12 61.5t32.5 49t49.5 33.5q27 12 59 12q34 0 62 -12q29 -12 49 -33t32.5 -49.5t12.5 -61.5q0 -34 -12 -61q-12 -29 -33 -49q-16 -16 -49 -31q-28 -12 -62 -12q-33 0 -59 12q-33 14 -49 31q-20 20 -33 49q-12 27 -12 61zM582 139q0 33 12 61.5t32.5 49 t49.5 33.5q28 12 61 12t60 -12q29 -12 49 -33q23 -23 35 -49q12 -29 12 -62q0 -34 -12 -61t-35 -49q-16 -16 -49 -31q-27 -12 -60 -12q-34 0 -61 12q-33 14 -49 31q-20 20 -33 49q-12 27 -12 61zM1128 139q0 33 13 62q14 33 30 49q20 20 50 33q28 12 61 12q34 0 61 -12 q29 -12 49.5 -33t33 -49.5t12.5 -61.5q0 -34 -13 -61q-12 -29 -32 -49q-16 -16 -50 -31q-28 -12 -61 -12q-34 0 -61 12q-33 14 -49.5 30.5t-30.5 49.5q-13 27 -13 61z" />
<glyph unicode="&#x202f;" horiz-adv-x="335" />
<glyph unicode="&#x205f;" horiz-adv-x="419" />
<glyph unicode="&#x20ac;" d="M45 553l16 135h119q0 10 2 31.5t2 32.5q4 37 9 59h-117l16 135h133q39 129 99 230q57 96 147 172q86 74 182 108q106 39 213 39q141 0 235.5 -55.5t151.5 -145.5l-98 -94q-2 -2 -6 -7t-7 -8t-7 -5q-10 -8 -33 -9q-22 0 -37 19q-10 12 -41 39q-16 14 -66 37 q-41 18 -108 18q-129 0 -227 -86q-100 -88 -150 -252h528l-8 -76q-4 -25 -22 -41q-20 -18 -53 -18h-476q-9 -58 -12 -123h444l-10 -74q-2 -23 -24 -41q-25 -20 -49 -20h-361q12 -180 82 -266q72 -90 193 -90q57 0 90 8q39 10 65 24q37 20 49 31q20 16 37 31q15 15 31 24 q16 10 29 11q10 0 18 -4.5t16 -12.5l93 -96q-88 -111 -203 -168q-119 -59 -262 -59q-123 0 -207 41q-88 43 -150 116q-59 70 -94 181q-33 100 -39 229h-133z" />
<glyph unicode="&#x2122;" horiz-adv-x="1370" d="M156 1339l16 140h471l-16 -140h-152l-59 -475h-166l57 475h-151zM633 864l76 615h143q27 0 35 -2q12 -2 18 -23l82 -270q14 -41 19 -68q4 8 8 17.5t8 17.5l8 15.5t10 17.5l154 270q12 20 25 23q8 2 34 2h144l-76 -615h-147l38 316q4 29 9 43q2 6 6 23.5t8 29.5l-178 -311 q-8 -16 -25 -27q-14 -8 -37 -8h-24q-18 0 -32.5 8t-20.5 27l-99 305v-58v-32l-39 -316h-147z" />
<glyph unicode="&#xe000;" horiz-adv-x="1050" d="M0 1050h1050v-1050h-1050v1050z" />
<glyph unicode="&#xfb01;" horiz-adv-x="1142" d="M59 -254l138 1114l-78 14q-31 8 -41 17q-14 12 -15 35l11 114h145l4 35q12 102 51 178q41 82 107 142q61 55 164 92q98 35 223 35q55 0 84 -4q49 -6 74 -15l-25 -127q-6 -25 -27 -26q-29 -4 -53 -4q-102 0 -159 -17q-66 -18 -107 -51q-45 -35 -66 -86q-22 -52 -30 -123 l-4 -29h606l-127 -1040h-250l107 860h-349l-98 -819l-53 -193q-12 -47 -43 -75q-29 -27 -88 -27h-101z" />
<glyph unicode="&#xfb02;" horiz-adv-x="1169" d="M59 -254l138 1114l-78 14q-31 8 -41 17q-14 12 -15 35l13 114h141l8 47q9 83 43 160t92 135q59 59 138 93q82 35 186 34q82 0 151.5 -6t143.5 -6h164l-185 -1497h-245l159 1317q-14 2 -42.5 5t-43.5 5q-29 4 -86 4q-102 0 -163.5 -61.5t-73.5 -182.5l-6 -47h223l-21 -180 h-215l-100 -819l-53 -193q-12 -47 -43 -75q-29 -27 -88 -27h-101z" />
<glyph unicode="&#xfb03;" horiz-adv-x="1841" d="M1389 0l127 1051h250l-127 -1051h-250zM1514 1356q0 29 14 63q12 31 33 51q23 23 51 35q33 14 57 15q27 0 60 -15q29 -12 51 -35q25 -25 35 -49q12 -31 12 -65t-12 -62q-10 -23 -37 -49q-23 -23 -49 -35q-29 -12 -62 -12q-29 0 -57 12q-27 12 -49.5 35t-34.5 49 q-12 28 -12 62zM716 -254l136 1114l-82 17q-20 2 -37 16q-14 12 -15 37v4l2 4q1 4 1 8t4 33q0 4 3 24.5t5 36.5h139l10 78q14 100 47 164q37 72 93 121q53 47 128.5 75.5t155.5 28.5q61 0 123 -20l-24 -131q-4 -14 -9 -19q-6 -6 -20 -10q-16 -4 -25 -4h-28q-40 0 -74 -12 q-41 -14 -62 -35q-25 -25 -43 -66q-16 -33 -22 -100l-8 -70h233l-22 -180h-226l-100 -817l-51 -193q-14 -49 -45 -75q-33 -29 -84 -29h-103zM61 -254l136 1114l-82 17q-20 2 -37 16q-14 12 -15 37v4l2 4q1 4 1 8t4 33q0 4 3 24.5t5 36.5h139l10 78q14 100 47 164 q37 72 93 121q53 47 128.5 75.5t155.5 28.5q61 0 123 -20l-24 -131q-4 -14 -9 -19q-6 -6 -20 -10q-16 -4 -25 -4h-28q-40 0 -74 -12q-41 -14 -62 -35q-25 -25 -43 -66q-16 -33 -22 -100l-8 -70h233l-22 -180h-226l-100 -817l-51 -193q-14 -49 -45 -75q-33 -29 -84 -29h-103z " />
<glyph unicode="&#xfb04;" horiz-adv-x="1824" d="M1381 0l184 1522h248l-185 -1522h-247zM716 -254l136 1114l-82 17q-20 2 -37 16q-14 12 -15 37v4l2 4q1 4 1 8t4 33q0 4 3 24.5t5 36.5h139l10 78q14 100 47 164q37 72 93 121q53 47 128.5 75.5t155.5 28.5q61 0 123 -20l-24 -131q-4 -14 -9 -19q-6 -6 -20 -10 q-16 -4 -25 -4h-28q-40 0 -74 -12q-41 -14 -62 -35q-25 -25 -43 -66q-16 -33 -22 -100l-8 -70h233l-22 -180h-226l-100 -817l-51 -193q-14 -49 -45 -75q-33 -29 -84 -29h-103zM61 -254l136 1114l-82 17q-20 2 -37 16q-14 12 -15 37v4l2 4q1 4 1 8t4 33q0 4 3 24.5t5 36.5 h139l10 78q14 100 47 164q37 72 93 121q53 47 128.5 75.5t155.5 28.5q61 0 123 -20l-24 -131q-4 -14 -9 -19q-6 -6 -20 -10q-16 -4 -25 -4h-28q-40 0 -74 -12q-41 -14 -62 -35q-25 -25 -43 -66q-16 -33 -22 -100l-8 -70h233l-22 -180h-226l-100 -817l-51 -193 q-14 -49 -45 -75q-33 -29 -84 -29h-103z" />
</font>
</defs></svg> 